<?xml version="1.0" encoding="UTF-8" standalone="no"?>
<!-- Created with Inkscape (http://www.inkscape.org/) -->

<svg
   xmlns:dc="http://purl.org/dc/elements/1.1/"
   xmlns:cc="http://creativecommons.org/ns#"
   xmlns:rdf="http://www.w3.org/1999/02/22-rdf-syntax-ns#"
   xmlns:svg="http://www.w3.org/2000/svg"
   xmlns="http://www.w3.org/2000/svg"
   xmlns:sodipodi="http://sodipodi.sourceforge.net/DTD/sodipodi-0.dtd"
   xmlns:inkscape="http://www.inkscape.org/namespaces/inkscape"
   id="svg3377"
   version="1.1"
   inkscape:version="0.91 r"
   width="415"
   height="102.5"
   viewBox="0 0 415 102.5"
   sodipodi:docname="beatrixpotter.svg">
  <metadata
     id="metadata3383">
    <rdf:RDF>
      <cc:Work
         rdf:about="">
        <dc:format>image/svg+xml</dc:format>
        <dc:type
           rdf:resource="http://purl.org/dc/dcmitype/StillImage" />
        <dc:title></dc:title>
      </cc:Work>
    </rdf:RDF>
  </metadata>
  <defs
     id="defs3381" />
  <sodipodi:namedview
     pagecolor="#ffffff"
     bordercolor="#666666"
     borderopacity="1"
     objecttolerance="10"
     gridtolerance="10"
     guidetolerance="10"
     inkscape:pageopacity="0"
     inkscape:pageshadow="2"
     inkscape:window-width="640"
     inkscape:window-height="480"
     id="namedview3379"
     showgrid="false"
     inkscape:zoom="0.74939759"
     inkscape:cx="207.5"
     inkscape:cy="51.25"
     inkscape:window-x="226"
     inkscape:window-y="101"
     inkscape:window-maximized="0"
     inkscape:current-layer="svg3377" />
  <path
     style="fill:#000000"
     d="m 388.35581,79.059137 c -1.50443,-0.9298 -1.75327,-2.92409 -1.10198,-8.83187 0.29258,-2.65397 -0.16309,-3.1184 -3.02309,-3.08116 -4.14748,0.054 -2.73404,-2.15035 2.86621,-4.47005 3.22925,-1.33759 4.09049,-1.2704 5.81453,0.45363 1.76863,1.76864 1.80496,2.4327 0.28805,5.26706 -2.08939,3.90408 -0.61774,7.00178 3.89211,8.19253 2.22647,0.58786 2.52015,0.99132 1.1317,1.55479 -3.45526,1.40223 -8.3455,1.85573 -9.86753,0.91507 z m -29.92997,-3.26162 c -1.62873,-3.57466 -1.42058,-3.9599 6.462,-11.95959 5.02236,-5.09699 9.4857,-6.75486 7.19674,-2.67316 -0.6747,1.20312 -2.95779,4.15625 -5.07353,6.5625 l -3.8468,4.375 3.15454,1.1788 c 4.17781,1.56118 3.97829,2.66448 -0.78198,4.32391 -5.32472,1.85621 -5.45701,1.82259 -7.11097,-1.80746 z m 13.86779,1.7243 c 1.94113,-0.70882 3.0847,-1.84152 2.61936,-2.59445 -0.50006,-0.80913 -0.2326,-0.96969 0.67791,-0.40696 2.20343,1.3618 -0.72074,4.48294 -4.08311,4.35817 -2.25761,-0.0838 -2.13888,-0.28877 0.78584,-1.35676 z m -76.1119,-1.50817 c -0.92813,-1.06042 -1.01257,-2.34053 -0.24485,-3.71235 0.64447,-1.15161 0.81165,-2.67652 0.3715,-3.38869 -0.99303,-1.60676 1.78956,-5.16039 3.3066,-4.22281 0.6096,0.37675 1.10836,-0.13638 1.10836,-1.14029 0,-2.80257 8.35744,-7.2184 11.95345,-6.31586 4.02081,1.00916 3.92584,2.87 -0.12375,2.42546 -2.02964,-0.2228 -3.6028,0.46003 -4.37226,1.89777 -0.66105,1.23519 -2.46876,2.4257 -4.01715,2.64559 -2.45064,0.34802 -2.8105,1.12829 -2.77866,6.0248 0.0445,6.84558 -2.14499,9.28047 -5.20319,5.78638 z m 54.39031,1.14564 c -0.31239,-0.31238 -2.55269,-0.70163 -4.97844,-0.865 -4.38951,-0.29561 -4.40899,-0.32327 -4.09879,-5.81841 0.2226,-3.94318 1.0561,-6.04279 2.91603,-7.34553 1.43237,-1.00328 2.28046,-2.34815 1.88464,-2.98861 -0.39583,-0.64046 -0.12399,-1.16447 0.60409,-1.16447 0.72807,0 1.32377,-0.84375 1.32377,-1.875 0,-1.03125 0.5625,-1.875 1.25,-1.875 0.6875,0 1.25,-0.78357 1.25,-1.74127 0,-0.95769 0.84375,-2.06504 1.875,-2.46077 4.23221,-1.62405 1.4965,-3.29796 -5.38993,-3.29796 -6.68237,0 -7.49577,0.31224 -10.14385,3.89394 -4.16899,5.63887 -7.79083,16.44075 -5.92872,17.68198 1.02135,0.6808 0.55079,1.73877 -1.55997,3.50736 -2.4799,2.07788 -3.31415,2.2408 -4.64739,0.90757 -1.33324,-1.33324 -1.27815,-2.63386 0.30686,-7.24539 1.06249,-3.09126 3.07436,-7.47334 4.47084,-9.73796 l 2.53904,-4.1175 -4.41529,2.47992 c -4.08645,2.29522 -9.84087,2.81247 -11.60977,1.04357 -0.41205,-0.41205 1.69507,-1.40735 4.68248,-2.21177 7.31941,-1.97092 14.34868,-5.66866 15.2523,-8.023479 0.40696,-1.060535 1.42446,-1.928246 2.2611,-1.928246 0.83665,0 2.85429,-1.252391 4.48364,-2.783093 2.28381,-2.145527 2.77275,-2.288706 2.13432,-0.625 -0.45547,1.186952 -0.34607,2.208689 0.2431,2.270528 7.13093,0.748453 11.42698,0.678079 13.11446,-0.214826 1.22804,-0.6498 4.49734,-0.444545 8.19443,0.514468 3.38318,0.877583 8.8864,1.737189 12.2294,1.910237 7.02161,0.363466 10.65795,1.957915 10.65795,4.673261 0,1.97578 -0.33855,1.96903 -17.5,-0.34912 -11.56394,-1.56204 -11.65302,-1.53062 -18.09972,6.38265 -4.4472,5.4589 -6.11963,8.63578 -6.36583,12.09224 -0.37182,5.22018 2.132,7.32645 5.45364,4.58772 1.70395,-1.40492 1.73756,-1.23066 0.29725,1.54094 -2.02576,3.89816 -2.00046,3.8682 -2.68664,3.18202 z m -241.80762,-7.19643 c -0.53463,-1.68446 0.0598,-3.39201 1.77937,-5.11161 2.33591,-2.3359 2.6592,-2.38149 3.3896,-0.47808 1.11337,2.90138 5.74667,2.63688 9.13689,-0.52159 1.55009,-1.44413 3.10138,-2.34266 3.44731,-1.99673 1.13988,1.13988 -2.63055,5.9149 -4.19612,5.31414 -0.84261,-0.32334 -2.09228,0.37312 -2.77706,1.54769 -0.68478,1.17457 -1.26215,1.69392 -1.28306,1.15411 -0.0209,-0.53982 -1.30363,-0.28562 -2.85051,0.56488 -4.32886,2.38008 -5.77357,2.27731 -6.64642,-0.47281 z m 22.27142,1.47652 c -1.54687,-0.62235 -2.8125,-2.02826 -2.8125,-3.12424 0,-2.99504 5.59814,-14.23096 10.58521,-21.24539 2.42814,-3.415219 4.41479,-7.195665 4.41479,-8.400989 0,-1.205322 0.71957,-2.191496 1.59905,-2.191496 0.87947,0 2.42635,-1.155699 3.4375,-2.568219 1.59976,-2.23479 2.64988,-2.456781 8.08845,-1.709872 3.4375,0.472091 7.65625,1.024501 9.375,1.22758 5.47864,0.647325 8.86741,2.076066 8.35407,3.522167 -0.27397,0.771839 -1.5626,1.242632 -2.86361,1.046204 -5.37301,-0.811222 -16.40789,-0.332429 -19.5086,0.846461 -4.44657,1.690583 -16.21615,19.128434 -16.43986,24.357354 -0.15863,3.70771 0.048,3.88588 4.1228,3.55524 2.35939,-0.19144 5.04485,-0.97472 5.9677,-1.74062 0.92285,-0.7659 2.01047,-1.05999 2.41694,-0.65352 1.08367,1.08367 -6.06748,7.03146 -8.5097,7.07772 -1.1469,0.0217 -2.8344,0.28558 -3.75,0.58634 -0.91562,0.30076 -2.93037,0.0376 -4.47724,-0.58472 z m 64.69593,0.0431 c -1.41851,-0.87668 -1.43597,-1.41012 -0.0989,-3.02117 0.89306,-1.07608 1.9819,-1.73941 2.41962,-1.47406 0.43773,0.26534 1.78832,-0.84174 3.0013,-2.46019 2.12708,-2.83806 2.11505,-2.991 -0.33832,-4.30401 -1.39909,-0.74876 -3.0902,-1.02368 -3.75805,-0.61093 -0.66784,0.41275 -2.20309,0.17462 -3.41166,-0.52918 -2.24234,-1.30582 -2.15528,-1.36131 2.94567,-1.8774 0.7662,-0.0775 2.21624,-0.8241 3.22232,-1.65907 1.30384,-1.0821 3.01917,-1.17684 5.97238,-0.32987 2.27874,0.65353 4.70343,0.84197 5.3882,0.41876 0.7955,-0.49165 0.93765,0.86912 0.39369,3.7687 -0.48704,2.5961 -0.27355,5.61785 0.49888,7.06113 1.14241,2.13463 0.8743,2.7398 -1.74194,3.93184 -3.28963,1.49885 -7.63822,0.62157 -6.44988,-1.3012 1.23778,-2.00276 -3.33122,-0.63693 -4.85909,1.45256 -0.94539,1.2929 -2.06989,1.62277 -3.18421,0.93409 z m 107.49157,-0.14129 c 0,-1.03735 0.83637,-2.97798 1.8586,-4.3125 1.8062,-2.35802 1.84801,-2.34666 1.48304,0.40304 -0.45879,3.45652 -3.34164,6.82923 -3.34164,3.90946 z M 20.024034,69.859357 c -0.400893,-1.04471 0.624992,-4.06119 2.279743,-6.70328 4.794231,-7.65482 14.510084,-27.671635 13.783872,-28.397846 -0.364057,-0.364057 0.224893,-1.548735 1.308777,-2.632619 1.083883,-1.083884 1.675,-2.741271 1.313592,-3.683085 -0.361409,-0.941814 -0.02156,-2.105176 0.755215,-2.585251 0.776778,-0.480074 1.926203,-2.224472 2.554279,-3.876438 1.9714,-5.185174 6.083729,-3.17436 5.048624,2.468635 -0.110688,0.603466 1.088318,0.698679 2.664474,0.211583 1.576156,-0.487095 4.131362,-1.18704 5.678237,-1.555433 1.546875,-0.368392 2.8125,-1.078181 2.8125,-1.57731 0,-0.499127 2.052895,-0.573816 4.56199,-0.165975 3.88939,0.632203 4.799956,1.42888 6.176026,5.40357 1.14827,3.316683 1.20591,4.578975 0.19975,4.374196 -0.77786,-0.158313 -1.64639,0.837158 -1.93007,2.212158 -0.283687,1.375 -1.442094,3.581065 -2.574243,4.902368 -1.647437,1.922681 -1.684067,2.216159 -0.183453,1.469803 1.113567,-0.553852 0.986661,-0.204432 -0.3125,0.860435 -1.203125,0.98615 -2.1875,2.152864 -2.1875,2.592698 0,1.475816 3.535106,0.818063 4.099702,-0.762804 1.001985,-2.80556 2.316474,-0.05197 3.246374,6.800475 0.85653,6.31176 0.69097,6.94612 -2.721759,10.42879 -2.413771,2.46324 -3.835886,3.18103 -4.2358,2.13795 -0.331123,-0.86366 -1.257125,-1.24382 -2.05778,-0.84481 -0.800656,0.39902 -0.559722,-0.0194 0.535407,-0.92971 2.576415,-2.14172 2.908543,-9.78019 0.425252,-9.78019 -0.985267,0 -1.791396,-0.6272 -1.791396,-1.39377 0,-0.85597 -1.18883,-0.61481 -3.081021,0.625 -7.231483,4.73825 -7.622775,0.80108 -0.668979,-6.731235 2.75,-2.978786 5,-6.400505 5,-7.60382 0,-1.203316 0.703125,-2.473148 1.5625,-2.82185 1.221419,-0.495605 1.198112,-0.889933 -0.106763,-1.80642 -0.918095,-0.64483 -1.761845,-1.658899 -1.875,-2.253485 -0.288202,-1.514384 -4.873747,-2.058371 -5.74082,-0.681039 -0.393204,0.624601 -2.824292,2.013905 -5.402417,3.087343 -3.179489,1.323823 -4.6875,2.74731 -4.6875,4.424762 0,1.360183 -1.40625,3.579215 -3.125,4.931184 -1.71875,1.351969 -3.125,3.01142 -3.125,3.687669 0,0.67625 -0.864254,1.946811 -1.920565,2.823471 -1.05631,0.87666 -3.981121,5.30491 -6.49958,9.84056 -2.518457,4.53564 -4.997604,8.42359 -5.509214,8.63989 -0.51161,0.21629 -0.65495,1.11054 -0.318535,1.98723 0.336417,0.87668 -0.251027,2.30994 -1.30543,3.18502 -1.573052,1.30552 -2.047902,1.25017 -2.645989,-0.30842 z m 30.790903,-1.05928 c -1.577703,-1.27755 -2.456109,-2.32281 -1.952014,-2.32281 0.504095,0 0.144535,-0.95173 -0.79902,-2.11495 -1.165695,-1.43708 -1.214751,-1.81408 -0.153056,-1.17623 0.859375,0.51629 1.5625,0.40283 1.5625,-0.25214 0,-0.74143 1.886986,-0.71189 5,0.0783 2.801166,0.71101 5,2.02683 5,2.99209 0,0.94762 -0.595698,1.72295 -1.323771,1.72295 -0.728074,0 -1.015651,0.49854 -0.639059,1.10788 1.385595,2.24194 -3.917895,2.21416 -6.69558,-0.0351 z m 106.158403,2.09021 c 0,-0.32284 1.125,-2.58995 2.5,-5.03802 3.70916,-6.60387 3.31458,-8.09949 -2.05131,-7.77513 -2.56745,0.1552 -4.77689,-0.35971 -5.06882,-1.1813 -0.63291,-1.78127 3.72072,-3.35345 9.68338,-3.49685 3.7903,-0.0911 4.47371,0.32194 4.68126,2.8296 0.13367,1.61498 -0.36878,4.0795 -1.11655,5.4767 -1.6175,3.02232 0.23282,5.63818 2.82563,3.9947 2.25807,-1.4313 4.00151,-1.42545 5.00545,0.0168 0.45872,0.659 2.33685,-0.5878 4.17361,-2.77068 1.83677,-2.18287 3.93926,-3.96886 4.6722,-3.96886 0.73294,0 0.35099,1.08469 -0.84879,2.41042 -1.25282,1.38437 -1.87136,3.38723 -1.45307,4.70516 0.47645,1.50118 -0.15058,2.8436 -1.81318,3.88192 -2.61192,1.63118 -5.51356,0.94213 -4.30019,-1.02115 0.37422,-0.6055 -0.46036,-1.71143 -1.85461,-2.45761 -2.03498,-1.08909 -2.53501,-0.97818 -2.53501,0.56229 0,1.06619 -1.0782,1.91898 -2.42623,1.91898 -1.33442,0 -2.77387,0.5625 -3.19877,1.25 -0.75768,1.22594 -6.875,1.81589 -6.875,0.66302 z m 218.75,-0.66302 c 0,-0.6875 0.5957,-1.25 1.32377,-1.25 0.72808,0 0.97613,0.5625 0.55123,1.25 -0.4249,0.6875 -1.0206,1.25 -1.32377,1.25 -0.30318,0 -0.55123,-0.5625 -0.55123,-1.25 z M 74.604773,67.421237 c -1.13411,-3.06578 0.51154,-6.50859 6.03375,-12.62303 3.52228,-3.90003 15.08482,-10.339269 15.08482,-8.400819 0,4.520119 -8.60513,12.996539 -13.19389,12.996539 -2.37485,0 -2.31931,3.8513 0.0843,5.84613 1.43788,1.19333 1.55086,1.97805 0.47195,3.27805 -2.28529,2.7536 -7.2963,2.10551 -8.48094,-1.09687 z m 189.868567,1.74467 c 0,-0.55427 3.32859,-5.45227 7.39686,-10.88444 4.06829,-5.43217 7.20919,-10.18035 6.9798,-10.55151 -1.23749,-2.002306 9.15726,-18.713891 11.65473,-18.737221 1.1146,-0.01037 0.3991,2.305847 -2.1875,7.081504 -2.11414,3.903337 -3.84389,7.840837 -3.84389,8.75 0,0.909162 -0.4969,1.653022 -1.10421,1.653022 -0.60732,0 -1.46005,0.984375 -1.89498,2.187505 -1.33469,3.69215 -4.18762,8.09639 -5.95026,9.18577 -0.92155,0.56954 -1.71569,1.47793 -1.76475,2.01863 -0.26233,2.89116 -3.68663,7.75335 -6.29864,8.94346 -1.64294,0.74857 -2.98716,0.90755 -2.98716,0.35328 z M 99.096583,65.557137 c 1.441637,-3.93341 6.200617,-10.33934 7.050067,-9.4899 0.45468,0.45468 0.82669,0.26073 0.82669,-0.431 0,-1.88402 5.61559,-4.07361 7.48476,-2.9184 2.1918,1.35461 0.65203,4.99946 -2.13303,5.04918 -1.2247,0.0219 -3.2111,0.787 -4.41423,1.7003 -2.48896,1.8894 -3.00327,5.07071 -0.625,3.86602 0.85938,-0.43531 0.58687,0.009 -0.60557,0.98732 -1.19244,0.97834 -1.91963,2.02724 -1.61598,2.33089 0.30366,0.30365 -1.09668,0.67773 -3.11186,0.83128 -3.026167,0.23059 -3.523287,-0.10461 -2.855847,-1.92569 z m -50.652391,-8.66379 c 0.608189,-3.13596 3.529155,-3.56656 3.529155,-0.52025 0,1.53542 -0.807111,2.60417 -1.966655,2.60417 -1.164049,0 -1.801716,-0.85047 -1.5625,-2.08392 z m 10.484521,-2.54967 c -0.678356,-1.7815 -0.534776,-1.92508 0.699744,-0.69975 0.854272,0.84792 1.238339,1.85655 0.85348,2.24141 -0.384859,0.38486 -1.08381,-0.30889 -1.553224,-1.54166 z M 289.88942,41.785781 c 3.3e-4,-0.895811 1.38312,-1.492015 3.22976,-1.392553 1.77603,0.09566 4.79152,-0.457015 6.70108,-1.228168 3.20047,-1.292472 3.37342,-1.218017 2.21193,0.952242 -1.51305,2.827158 -12.14378,4.287873 -12.14277,1.668479 z m -32.19348,-8.62992 c -1.30718,-3.406439 10.26239,-19.012473 12.89069,-17.388092 0.76268,0.471369 1.38671,0.261338 1.38671,-0.466736 0,-0.728074 1.2375,-1.323771 2.75,-1.323771 3.56289,0 1.2602,2.541612 -2.56365,2.829654 -1.47749,0.111296 -2.68635,0.616955 -2.68635,1.123686 0,0.506731 -1.6168,3.340154 -3.59288,6.296495 -1.97608,2.956341 -3.98275,6.64079 -4.45923,8.187665 -1.02296,3.320889 -2.61388,3.637382 -3.72529,0.741099 z m -43.45698,-1.912974 c -1.82211,-1.822107 -2.22538,-2.904037 -1.20876,-3.242913 2.34534,-0.781777 4.88729,0.570158 6.40535,3.406679 1.92798,3.602468 -1.53963,3.493188 -5.19659,-0.163766 z m 93.98438,-2.69689 c 0,-8.507358 -3.52379,-10.561993 -22.38395,-13.051549 -5.07514,-0.669921 -6.83838,-1.438627 -7.07776,-3.08564 -0.17536,-1.2064 0.0718,-1.952024 0.54927,-1.656941 0.47745,0.295082 4.92807,0.702265 9.89026,0.904853 8.23627,0.336253 9.6546,0.947332 9.15043,3.94238 -0.0922,0.548261 0.54421,0.903489 1.41448,0.789397 4.41579,-0.578924 7.60646,0.37431 10.31333,3.081189 1.64584,1.645833 3.26047,2.724378 3.58808,2.396766 0.32761,-0.327613 0.27739,1.841421 -0.11163,4.820076 -0.6509,4.98408 -2.00399,7.222775 -4.39504,7.271593 -0.51562,0.0105 -0.9375,-2.424929 -0.9375,-5.412124 z"
     id="path3634"
     inkscape:connector-curvature="0" />
</svg>
