<?xml version="1.0" encoding="UTF-8" standalone="no"?>
<!-- Created with Inkscape (http://www.inkscape.org/) -->

<svg
   xmlns:dc="http://purl.org/dc/elements/1.1/"
   xmlns:cc="http://creativecommons.org/ns#"
   xmlns:rdf="http://www.w3.org/1999/02/22-rdf-syntax-ns#"
   xmlns:svg="http://www.w3.org/2000/svg"
   xmlns="http://www.w3.org/2000/svg"
   xmlns:sodipodi="http://sodipodi.sourceforge.net/DTD/sodipodi-0.dtd"
   xmlns:inkscape="http://www.inkscape.org/namespaces/inkscape"
   sodipodi:docname="fatswaller.svg"
   viewBox="0 0 108 42.48"
   height="42.48"
   width="108"
   inkscape:version="0.91 r"
   version="1.1"
   id="svg3367">
  <metadata
     id="metadata3373">
    <rdf:RDF>
      <cc:Work
         rdf:about="">
        <dc:format>image/svg+xml</dc:format>
        <dc:type
           rdf:resource="http://purl.org/dc/dcmitype/StillImage" />
      </cc:Work>
    </rdf:RDF>
  </metadata>
  <defs
     id="defs3371" />
  <sodipodi:namedview
     inkscape:current-layer="svg3367"
     inkscape:window-maximized="0"
     inkscape:window-y="27"
     inkscape:window-x="0"
     inkscape:cy="21.24"
     inkscape:cx="54"
     inkscape:zoom="2.8796296"
     showgrid="false"
     id="namedview3369"
     inkscape:window-height="480"
     inkscape:window-width="640"
     inkscape:pageshadow="2"
     inkscape:pageopacity="0"
     guidetolerance="10"
     gridtolerance="10"
     objecttolerance="10"
     borderopacity="1"
     bordercolor="#666666"
     pagecolor="#ffffff" />
  <path
     style="fill:#000000"
     d="m 35.141057,40.180936 c -1.172422,-0.403193 -2.820679,-1.207127 -3.662794,-1.786517 -1.673164,-1.151167 -3.442052,-3.193583 -3.160474,-3.649187 0.280937,-0.454564 0.854944,-0.333819 0.854944,0.179842 0,0.598633 2.327498,2.804751 3.96,3.753486 1.895319,1.101473 3.814384,1.622238 7.011713,1.902729 l 2.888287,0.253378 -2.88,0.03968 c -2.044181,0.02815 -3.498646,-0.173078 -5.011676,-0.693411 z m 9.248527,0.147723 c 0.350269,-0.09128 0.836269,-0.08527 1.08,0.01332 0.243731,0.09861 -0.04285,0.173293 -0.636851,0.165956 -0.594,-0.0073 -0.793418,-0.08802 -0.443149,-0.179294 z m 1.733148,-0.242766 c 0.0825,-0.07273 0.798001,-0.230912 1.590001,-0.351508 1.003608,-0.152816 1.221804,-0.120409 0.72,0.106938 -0.691096,0.31311 -2.619306,0.517259 -2.310001,0.24457 z m 32.923919,-1.99699 c 2.596975,-0.420334 4.24423,-1.340089 4.009266,-2.238595 -0.116979,-0.447331 -0.0293,-0.66088 0.235144,-0.572731 0.23192,0.07731 0.421672,0.435176 0.421672,0.795264 0,0.929323 -2.413271,2.077889 -4.631504,2.204308 l -1.848496,0.105347 1.813918,-0.293593 z M 56.465233,37.812214 c 0.259873,-0.103994 0.570373,-0.0912 0.690001,0.02842 0.119625,0.119625 -0.093,0.204711 -0.4725,0.189079 -0.419382,-0.01727 -0.504684,-0.102579 -0.217501,-0.2175 z m 24.0075,-3.354079 c -0.45383,-0.195017 -0.520373,-0.309394 -0.18,-0.309394 0.297,0 0.864,0.139227 1.26,0.309394 0.45383,0.195017 0.520373,0.309394 0.18,0.309394 -0.297,0 -0.864,-0.139227 -1.26,-0.309394 z m -4.05,-0.608157 c 0.3465,-0.09055 0.9135,-0.09055 1.26,0 0.3465,0.09055 0.063,0.164636 -0.63,0.164636 -0.693,0 -0.9765,-0.07409 -0.63,-0.164636 z m 2.3625,0.0022 c 0.259873,-0.103994 0.570373,-0.0912 0.690001,0.02842 0.119625,0.119625 -0.093,0.20471 -0.4725,0.189079 -0.419382,-0.01727 -0.504684,-0.102579 -0.217501,-0.2175 z M 21.126972,32.489664 c -0.111537,-0.290659 -0.04787,-0.62422 0.141484,-0.741246 0.189352,-0.117026 0.344277,0.02629 0.344277,0.318471 0,0.292185 0.2025,0.612957 0.45,0.712825 0.284166,0.114663 0.232026,0.192053 -0.141484,0.21 -0.325316,0.01563 -0.682741,-0.209391 -0.794277,-0.50005 z m 1.565761,0.02699 c 0,-0.07782 0.251414,-0.237961 0.558698,-0.355877 0.320373,-0.122938 0.464876,-0.06259 0.338754,0.141484 -0.211413,0.342074 -0.897452,0.505962 -0.897452,0.214393 z m 3.710552,-3.474954 c 1.438512,-1.680578 3.401129,-5.227188 4.064298,-7.344523 0.251342,-0.802471 0.467822,-1.17232 0.481067,-0.821886 0.06798,1.798537 -4.340763,9.622847 -5.422159,9.622847 -0.203424,0 0.191133,-0.655397 0.876794,-1.456438 z m 25.559079,-0.163294 c -1.152065,-0.806936 -2.269631,-2.818626 -2.269631,-4.085475 0,-1.23798 0.996163,-4.014793 1.440281,-4.014793 0.155156,0 -0.03463,0.6075 -0.421791,1.35 -1.263139,2.422572 -0.158101,5.515286 2.360913,6.607575 l 1.039403,0.450703 0.940597,-0.53587 0.940597,-0.53587 -0.111233,-1.480942 c -0.233489,-3.108601 1.27777,-5.662928 2.966947,-5.01473 0.719208,0.275986 0.751644,2.366185 0.05152,3.320327 l -0.512759,0.698807 0.406635,-1.528127 c 0.55765,-2.09563 -0.0288,-2.716897 -1.333293,-1.412419 l -0.927817,0.927819 0,1.879116 0,1.879117 0.971737,-0.872753 0.971737,-0.872753 -0.611737,0.977334 c -0.816199,1.303989 -0.773031,1.664611 0.255348,2.133172 0.672592,0.306453 1.116717,0.270536 1.98,-0.160126 1.217193,-0.607217 1.480029,-0.428435 0.482915,0.328483 -0.866963,0.658118 -2.602364,0.619639 -3.369614,-0.07471 l -0.636308,-0.57585 -0.822142,0.57585 c -1.033575,0.723945 -2.786462,0.74064 -3.792305,0.03612 z M 31.572733,28.098135 c -0.79236,-0.79236 0.280651,-5.058196 1.634921,-6.49975 0.883978,-0.940951 2.151636,-1.0676 2.805079,-0.28025 0.553619,0.667069 3.459928,0.737334 3.722594,0.09 0.140768,-0.346921 0.262764,-0.3353 0.532599,0.05073 0.26861,0.384285 0.861015,0.442917 2.547407,0.252124 2.985073,-0.337723 2.780596,-0.01628 -0.3226,0.507145 l -2.52,0.425053 -0.01274,0.777473 c -0.007,0.427612 -0.244293,1.182475 -0.52726,1.677475 -0.599573,1.048844 -0.701035,0.497578 -0.177901,-0.966564 l 0.362099,-1.013436 -0.555686,0.717387 c -0.305625,0.394564 -0.509072,1.042564 -0.452098,1.44 l 0.103586,0.722613 1.44,-0.02146 c 0.792,-0.0118 1.893499,-0.152871 2.447773,-0.313488 l 1.007773,-0.29203 -0.242467,1.033488 c -0.390827,1.665857 -0.957647,2.043308 -2.641291,1.758858 -0.81733,-0.138087 -1.716235,-0.481247 -1.997568,-0.762578 l -0.51151,-0.511511 -1.271822,0.606489 c -0.977486,0.466131 -1.465323,0.518322 -2.107956,0.225519 -0.62985,-0.286979 -1.004446,-0.257898 -1.518341,0.117871 -0.741925,0.542508 -1.368029,0.635401 -1.744591,0.258839 z m 11.069958,-1.071526 c 0.317419,-0.827183 0.248026,-0.840287 -1.753204,-0.331062 -1.828288,0.465217 -1.661731,0.842512 0.39473,0.894167 0.736444,0.0185 1.210734,-0.1781 1.358474,-0.563105 z m -8.879958,-0.576614 c 0.2475,-0.198011 0.45,-0.650935 0.45,-1.006497 0,-1.057548 0.400936,-1.785363 0.983516,-1.785363 0.421973,0 0.494367,-0.260591 0.317734,-1.14375 -0.304168,-1.520841 -0.401815,-1.576628 -1.500084,-0.857014 -1.022698,0.670097 -1.747373,2.112342 -2.155608,4.290081 l -0.260439,1.389316 0.857441,-0.263376 c 0.471592,-0.144858 1.05994,-0.425386 1.30744,-0.623397 z m 3.353666,0.435474 c 0.419246,-0.224373 0.70141,-0.761572 0.709092,-1.35 0.007,-0.537534 0.244275,-1.382334 0.527242,-1.877334 0.704686,-1.232718 0.692654,-1.257152 -0.631058,-1.281513 l -1.168942,-0.02151 -0.744214,2.2773 c -0.409317,1.252515 -0.665817,2.355696 -0.569999,2.451513 0.287577,0.287577 1.137565,0.197751 1.877879,-0.198453 z m 24.942075,-0.257334 c 0.277326,-0.5445 0.922565,-2.448 1.433865,-4.23 0.511298,-1.782 1.503555,-4.696886 2.205015,-6.477524 1.322849,-3.358022 1.580043,-5.133811 0.84938,-5.864476 -0.476744,-0.4767412 -0.179744,-0.9923692 0.37435,-0.6499202 0.884808,0.546842 0.777351,2.3008602 -0.323226,5.2759452 -0.61771,1.669786 -1.650795,4.736975 -2.295749,6.815975 -1.114571,3.592802 -2.174947,6.12 -2.567866,6.12 -0.099,0 0.0469,-0.4455 0.324231,-0.99 z m 4.323405,0.08729 c -0.366868,-0.956041 0.234296,-3.018872 1.045329,-3.586942 1.030705,-0.721935 3.283862,-0.71121 3.889476,0.01852 0.370692,0.446656 0.382903,0.805207 0.05684,1.669048 l -0.415278,1.100189 2.005146,-0.20695 c 2.356611,-0.243224 2.570371,-0.381545 1.792199,-1.159719 -1.112602,-1.112599 -0.377237,-3.846943 1.262639,-4.694956 l 1.047438,-0.541651 0.239036,0.622917 c 0.131469,0.342605 -0.109685,1.580407 -0.535899,2.750672 l -0.774933,2.127754 1.339431,-0.197637 1.33943,-0.197636 -1.26,0.371885 c -0.693,0.204537 -1.711282,0.612911 -2.262848,0.907498 -0.551567,0.294586 -2.05947,0.60337 -3.350895,0.686185 -1.291428,0.08282 -2.651994,0.313242 -3.023485,0.512058 -0.989158,0.529381 -2.154805,0.441127 -2.393626,-0.181228 z m 3.020854,-0.62543 c 0.2475,-0.198011 0.45,-0.631784 0.45,-0.96394 0,-0.332156 0.201146,-0.805066 0.44699,-1.050911 l 0.446991,-0.446991 -0.486843,-0.300884 c -1.028682,-0.635761 -2.782767,0.26427 -3.332379,1.70986 -0.617285,1.623583 0.936032,2.284301 2.475241,1.052866 z m 7.061101,-4.02291 c 0.32274,-0.974077 0.505635,-1.852216 0.406429,-1.951419 -0.45801,-0.458011 -1.97753,1.574559 -1.97753,2.645222 0,2.295859 0.68004,1.995551 1.571101,-0.693803 z m 21.401403,3.505129 c 0.25987,-0.103994 0.57037,-0.0912 0.69,0.02842 0.11962,0.119625 -0.093,0.204711 -0.4725,0.189079 -0.41939,-0.01727 -0.50469,-0.102579 -0.2175,-0.2175 z m -5.1525,-0.479875 c -2.24355,-0.44701 -4.46822,-1.447116 -5.04235,-2.266803 l -0.523,-0.746678 -0.84435,0.793233 c -0.62928,0.591178 -1.11258,0.739779 -1.897333,0.583385 -0.61889,-0.12334 -1.470614,0.0072 -2.066069,0.316662 -0.5572,0.289581 -1.324116,0.445177 -1.704254,0.345768 -0.764827,-0.200006 -1.511863,-2.298705 -1.166324,-3.276626 0.320626,-0.907417 1.233435,-1.863145 1.779472,-1.863145 0.586566,0 0.653703,2.027311 0.114131,3.446492 -0.549259,1.444664 -0.730487,0.896126 -0.284472,-0.861038 0.43942,-1.731179 0.128589,-2.390199 -0.634889,-1.346081 -0.659948,0.902531 -0.654894,2.512687 0.0096,3.064182 0.689595,0.572312 2.177306,0.338857 2.18933,-0.343555 0.01544,-0.876444 0.52264,-1.44 1.295989,-1.44 0.544021,0 0.669791,0.167695 0.508028,0.677367 -0.335934,1.05843 0.703541,1.183754 1.630901,0.196628 0.99043,-1.054269 1.65068,-1.114623 1.94793,-0.178064 0.31514,0.992919 2.78604,2.069067 6.12764,2.668758 2.02136,0.362759 2.45068,0.516788 1.44,0.516638 -0.792,-1.18e-4 -2.088,-0.129323 -2.88,-0.287123 z m -8.820004,-2.874204 c 0,-0.198 -0.07144,-0.36 -0.158753,-0.36 -0.08731,0 -0.258876,0.162 -0.381247,0.36 -0.122371,0.198 -0.05093,0.36 0.158753,0.36 0.209685,0 0.381247,-0.162 0.381247,-0.36 z M 23.710881,20.851669 c 0.773941,-0.608605 4.428314,-2.159996 3.94168,-1.673362 -0.118833,0.118833 -1.242908,0.692249 -2.497944,1.274258 -1.406933,0.652449 -1.96051,0.805479 -1.443736,0.399104 z m -4.889919,-0.849305 c -0.524143,-0.524143 -0.603159,-2.685985 -0.109329,-2.991188 0.186395,-0.115199 0.388895,0.47015 0.45,1.300774 0.0611,0.830624 0.305057,1.573969 0.542116,1.651878 0.275001,0.09038 0.40531,-0.218565 0.36,-0.853499 l -0.07102,-0.99515 0.991853,-0.358669 c 1.509682,-0.545923 2.069935,0.20404 1.113575,1.490646 -0.812006,1.092404 -2.541462,1.490945 -3.277199,0.755208 z m 2.933255,-0.873672 c 0.460686,-1.200529 0.162935,-1.526264 -0.823942,-0.901377 -0.522039,0.330553 -0.31067,1.47082 0.272643,1.47082 0.183031,0 0.431115,-0.256249 0.551299,-0.569443 z m 32.369166,-1.944724 2.090649,-2.334167 -1.552698,-0.396097 c -3.35439,-0.855712 -5.020106,-2.53326 -5.240387,-5.2776032 l -0.152348,-1.897966 0.853214,-1.26 c 0.984212,-1.453456 3.137177,-2.748126 4.011833,-2.412488 0.457794,0.175672 0.599087,0.694527 0.599087,2.199944 0,1.083529 -0.18005,2.08133 -0.400115,2.217336 -0.28553,0.176467 -0.327463,-0.280925 -0.146433,-1.597173 l 0.253677,-1.844456 -0.620568,-0.238134 c -0.932688,-0.357906 -2.934054,0.890765 -3.567596,2.225854 -0.75213,1.584996 -0.703627,2.794238 0.181681,4.5295862 1.231636,2.414204 5.566522,3.988706 7.322389,2.659614 0.685793,-0.519107 1.296965,-0.426589 1.296965,0.196332 0,0.183658 -0.5265,0.559213 -1.17,0.834569 -0.6435,0.275356 -2.223,1.45203 -3.51,2.614831 l -2.34,2.114185 2.09065,-2.334167 z m -24.05065,0.82421 c 0.553557,-0.522737 5.522617,-2.349171 5.978138,-2.197331 0.221724,0.07391 -0.944558,0.614283 -2.591737,1.200833 -1.647178,0.586551 -3.163965,1.127205 -3.370636,1.201455 -0.24951,0.08964 -0.254807,0.02078 -0.01576,-0.204957 z m 14.348488,-0.654465 c -0.358355,-0.933863 0.226911,-3.775578 0.7776,-3.775578 l 0.501973,0 -0.534161,1.513973 c -0.554566,1.571809 -0.471179,2.446027 0.233316,2.446027 0.2254,0 0.312066,-0.254736 0.192589,-0.566079 -0.366649,-0.955481 0.425041,-1.958962 1.50286,-1.904895 l 0.977335,0.04903 -0.832014,0.158898 c -0.974797,0.186166 -1.418544,1.056494 -0.835787,1.639249 0.677805,0.677805 0.465214,0.983802 -0.683496,0.983802 -0.641887,0 -1.177333,-0.224201 -1.300215,-0.544422 z m -7.688488,-1.765972 c 0,-0.275744 1.20551,-0.747727 2.79,-1.092345 0.678632,-0.147599 1.17,-0.11059 1.17,0.08812 0,0.188426 -0.633838,0.443948 -1.408529,0.567826 -0.774691,0.123878 -1.665691,0.323915 -1.98,0.444527 -0.314309,0.120616 -0.571471,0.116956 -0.571471,-0.0081 z M 29.033757,10.096138 C 28.67432,8.9797158 26.12351,6.7820388 24.199082,5.9307728 l -1.641781,-0.726238 -2.722284,0.193383 c -2.646395,0.187993 -7.030516,1.519585 -9.022284,2.740346 l -0.8999998,0.551613 0.6678818,-0.776076 c 1.009504,-1.173041 5.689347,-2.618588 9.270651,-2.863594 l 3.098532,-0.211978 1.966777,0.90042 c 2.052541,0.939685 4.824427,3.804329 4.526418,4.6778912 -0.09475,0.277755 -0.257741,0.150149 -0.409236,-0.320402 z"
     id="path3542"
     inkscape:connector-curvature="0" />
</svg>
