%!PS-Adobe-3.0
%%Creator: cairo 1.13.1 (http://cairographics.org)
%%CreationDate: Mon Mar  9 12:29:03 2015
%%Pages: 1
%%DocumentData: Clean7Bit
%%LanguageLevel: 2
%%DocumentMedia: 85x56mm 240 160 0 () ()
%%BoundingBox: 13 13 222 147
%%EndComments
%%BeginProlog
/languagelevel where
{ pop languagelevel } { 1 } ifelse
2 lt { /Helvetica findfont 12 scalefont setfont 50 500 moveto
  (This print job requires a PostScript Language Level 2 printer.) show
  showpage quit } if
/q { gsave } bind def
/Q { grestore } bind def
/cm { 6 array astore concat } bind def
/w { setlinewidth } bind def
/J { setlinecap } bind def
/j { setlinejoin } bind def
/M { setmiterlimit } bind def
/d { setdash } bind def
/m { moveto } bind def
/l { lineto } bind def
/c { curveto } bind def
/h { closepath } bind def
/re { exch dup neg 3 1 roll 5 3 roll moveto 0 rlineto
      0 exch rlineto 0 rlineto closepath } bind def
/S { stroke } bind def
/f { fill } bind def
/f* { eofill } bind def
/n { newpath } bind def
/W { clip } bind def
/W* { eoclip } bind def
/BT { } bind def
/ET { } bind def
/pdfmark where { pop globaldict /?pdfmark /exec load put }
    { globaldict begin /?pdfmark /pop load def /pdfmark
    /cleartomark load def end } ifelse
/BDC { mark 3 1 roll /BDC pdfmark } bind def
/EMC { mark /EMC pdfmark } bind def
/cairo_store_point { /cairo_point_y exch def /cairo_point_x exch def } def
/Tj { show currentpoint cairo_store_point } bind def
/TJ {
  {
    dup
    type /stringtype eq
    { show } { -0.001 mul 0 cairo_font_matrix dtransform rmoveto } ifelse
  } forall
  currentpoint cairo_store_point
} bind def
/cairo_selectfont { cairo_font_matrix aload pop pop pop 0 0 6 array astore
    cairo_font exch selectfont cairo_point_x cairo_point_y moveto } bind def
/Tf { pop /cairo_font exch def /cairo_font_matrix where
      { pop cairo_selectfont } if } bind def
/Td { matrix translate cairo_font_matrix matrix concatmatrix dup
      /cairo_font_matrix exch def dup 4 get exch 5 get cairo_store_point
      /cairo_font where { pop cairo_selectfont } if } bind def
/Tm { 2 copy 8 2 roll 6 array astore /cairo_font_matrix exch def
      cairo_store_point /cairo_font where { pop cairo_selectfont } if } bind def
/g { setgray } bind def
/rg { setrgbcolor } bind def
/d1 { setcachedevice } bind def
/cairo_set_page_size {
  % Change paper size, but only if different from previous paper size otherwise
  % duplex fails. PLRM specifies a tolerance of 5 pts when matching paper size
  % so we use the same when checking if the size changes.
  /setpagedevice where {
    pop currentpagedevice
    /PageSize known {
      2 copy
      currentpagedevice /PageSize get aload pop
      exch 4 1 roll
      sub abs 5 gt
      3 1 roll
      sub abs 5 gt
      or
    } {
      true
    } ifelse
    {
      2 array astore
      2 dict begin
        /PageSize exch def
        /ImagingBBox null def
      currentdict end
      setpagedevice
    } {
      pop pop
    } ifelse
  } {
    pop
  } ifelse
} def
%%EndProlog
%%BeginSetup
%%EndSetup
%%Page: 1 1
%%BeginPageSetup
%%PageMedia: 85x56mm
%%PageBoundingBox: 13 13 222 147
240 160 cairo_set_page_size
%%EndPageSetup
q 13 13 209 134 rectclip q
0 g
56.23 144.742 m 56.23 146.309 l 56.23 146.512 56.309 146.613 56.469 146.613
 c 56.617 146.613 56.691 146.512 56.691 146.309 c 56.691 144.742 l 58.191
 145.227 l 58.254 145.25 58.309 145.262 58.363 145.262 c 58.414 145.262 
58.465 145.238 58.508 145.191 c 58.555 145.148 58.578 145.094 58.578 145.035
 c 58.578 144.922 58.496 144.84 58.34 144.785 c 56.84 144.312 l 57.754 143.051
 l 57.805 142.961 57.832 142.891 57.832 142.848 c 57.832 142.785 57.809 
142.734 57.766 142.688 c 57.719 142.645 57.668 142.621 57.605 142.621 c 
57.531 142.621 57.457 142.676 57.383 142.781 c 56.457 144.043 l 55.543 142.781
 l 55.461 142.676 55.383 142.621 55.305 142.621 c 55.246 142.621 55.195 
142.645 55.148 142.688 c 55.102 142.734 55.082 142.789 55.082 142.859 c 
55.082 142.902 55.109 142.969 55.172 143.051 c 56.086 144.312 l 54.586 144.785
 l 54.539 144.797 l 54.496 144.805 54.453 144.832 54.414 144.875 c 54.379
 144.922 54.359 144.969 54.359 145.023 c 54.359 145.082 54.383 145.137 54.426
 145.18 c 54.473 145.227 54.523 145.25 54.586 145.25 c 54.605 145.25 54.656
 145.238 54.73 145.215 c 56.23 144.742 l 29.188 133.465 m 29.188 135.035
 l 29.188 135.238 29.266 135.336 29.426 135.336 c 29.574 135.336 29.652 
135.238 29.652 135.035 c 29.652 133.465 l 31.148 133.949 l 31.211 133.973
 31.266 133.984 31.32 133.984 c 31.371 133.984 31.422 133.961 31.465 133.918
 c 31.512 133.871 31.535 133.82 31.535 133.758 c 31.535 133.648 31.453 133.562
 31.297 133.512 c 29.797 133.039 l 30.711 131.773 l 30.762 131.684 30.789
 131.617 30.789 131.57 c 30.789 131.512 30.766 131.461 30.723 131.414 c 
30.676 131.367 30.625 131.348 30.562 131.348 c 30.488 131.348 30.414 131.398
 30.34 131.504 c 29.414 132.766 l 28.5 131.504 l 28.418 131.398 28.34 131.348
 28.266 131.348 c 28.203 131.348 28.152 131.367 28.105 131.414 c 28.062 
131.461 28.039 131.516 28.039 131.582 c 28.039 131.629 28.066 131.691 28.129
 131.773 c 29.043 133.039 l 27.543 133.512 l 27.496 133.523 l 27.453 133.531
 27.41 133.555 27.371 133.602 c 27.336 133.648 27.316 133.695 27.316 133.75
 c 27.316 133.809 27.34 133.859 27.383 133.906 c 27.43 133.949 27.48 133.973
 27.543 133.973 c 27.566 133.973 27.613 133.961 27.688 133.941 c 29.188 
133.465 l 15.668 122.191 m 15.668 123.758 l 15.668 123.961 15.746 124.062
 15.902 124.062 c 16.055 124.062 16.129 123.961 16.129 123.758 c 16.129 
122.191 l 17.629 122.676 l 17.688 122.699 17.746 122.711 17.797 122.711 
c 17.852 122.711 17.898 122.688 17.945 122.641 c 17.988 122.598 18.012 122.543
 18.012 122.484 c 18.012 122.371 17.934 122.289 17.773 122.234 c 16.277 
121.762 l 17.188 120.5 l 17.242 120.41 17.27 120.344 17.27 120.297 c 17.27
 120.238 17.246 120.184 17.199 120.141 c 17.156 120.094 17.102 120.07 17.043
 120.07 c 16.969 120.07 16.891 120.125 16.816 120.23 c 15.891 121.492 l 
14.98 120.23 l 14.895 120.125 14.816 120.07 14.742 120.07 c 14.684 120.07
 14.629 120.094 14.586 120.141 c 14.539 120.184 14.516 120.242 14.516 120.309
 c 14.516 120.352 14.547 120.418 14.605 120.5 c 15.52 121.762 l 14.02 122.234
 l 13.977 122.246 l 13.93 122.254 13.891 122.281 13.852 122.328 c 13.812
 122.371 13.797 122.422 13.797 122.473 c 13.797 122.531 13.816 122.586 13.863
 122.629 c 13.906 122.676 13.961 122.699 14.02 122.699 c 14.043 122.699 
14.094 122.688 14.168 122.664 c 15.668 122.191 l 15.668 110.914 m 15.668
 112.484 l 15.668 112.688 15.746 112.789 15.902 112.789 c 16.055 112.789
 16.129 112.688 16.129 112.484 c 16.129 110.914 l 17.629 111.402 l 17.688
 111.422 17.746 111.434 17.797 111.434 c 17.852 111.434 17.898 111.41 17.945
 111.367 c 17.988 111.32 18.012 111.27 18.012 111.211 c 18.012 111.098 17.934
 111.012 17.773 110.961 c 16.277 110.488 l 17.188 109.223 l 17.242 109.133
 17.27 109.066 17.27 109.023 c 17.27 108.961 17.246 108.91 17.199 108.863
 c 17.156 108.82 17.102 108.797 17.043 108.797 c 16.969 108.797 16.891 108.848
 16.816 108.953 c 15.891 110.219 l 14.98 108.953 l 14.895 108.848 14.816
 108.797 14.742 108.797 c 14.684 108.797 14.629 108.82 14.586 108.863 c 
14.539 108.91 14.516 108.965 14.516 109.031 c 14.516 109.078 14.547 109.141
 14.605 109.223 c 15.52 110.488 l 14.02 110.961 l 13.977 110.973 l 13.93
 110.98 13.891 111.008 13.852 111.051 c 13.812 111.098 13.797 111.145 13.797
 111.199 c 13.797 111.258 13.816 111.309 13.863 111.355 c 13.906 111.402
 13.961 111.422 14.02 111.422 c 14.043 111.422 14.094 111.41 14.168 111.391
 c 15.668 110.914 l 22.426 99.641 m 22.426 101.207 l 22.426 101.41 22.508
 101.512 22.664 101.512 c 22.816 101.512 22.891 101.41 22.891 101.207 c 
22.891 99.641 l 24.391 100.125 l 24.449 100.148 24.508 100.16 24.559 100.16
 c 24.609 100.16 24.66 100.137 24.707 100.09 c 24.75 100.047 24.773 99.992
 24.773 99.934 c 24.773 99.82 24.695 99.738 24.535 99.688 c 23.035 99.211
 l 23.949 97.949 l 24.004 97.859 24.027 97.793 24.027 97.746 c 24.027 97.688
 24.008 97.633 23.961 97.59 c 23.914 97.543 23.863 97.52 23.805 97.52 c 
23.727 97.52 23.652 97.574 23.578 97.68 c 22.652 98.941 l 21.738 97.68 l
 21.656 97.574 21.578 97.52 21.504 97.52 c 21.441 97.52 21.391 97.543 21.344
 97.59 c 21.301 97.633 21.277 97.691 21.277 97.758 c 21.277 97.805 21.309
 97.867 21.367 97.949 c 22.281 99.211 l 20.781 99.688 l 20.734 99.695 l 
20.691 99.703 20.648 99.73 20.613 99.777 c 20.574 99.82 20.555 99.871 20.555
 99.922 c 20.555 99.984 20.578 100.035 20.625 100.082 c 20.668 100.125 20.723
 100.148 20.781 100.148 c 20.805 100.148 20.852 100.137 20.93 100.113 c 
22.426 99.641 l 35.949 88.367 m 35.949 89.934 l 35.949 90.137 36.027 90.238
 36.188 90.238 c 36.336 90.238 36.41 90.137 36.41 89.934 c 36.41 88.367 
l 37.91 88.852 l 37.973 88.871 38.027 88.883 38.078 88.883 c 38.133 88.883
 38.18 88.863 38.227 88.816 c 38.273 88.77 38.293 88.719 38.293 88.66 c 
38.293 88.547 38.215 88.465 38.059 88.41 c 36.559 87.938 l 37.473 86.676
 l 37.523 86.586 37.551 86.516 37.551 86.473 c 37.551 86.41 37.527 86.359
 37.48 86.312 c 37.438 86.27 37.383 86.246 37.324 86.246 c 37.25 86.246 
37.176 86.297 37.098 86.402 c 36.176 87.668 l 35.262 86.402 l 35.18 86.297
 35.098 86.246 35.023 86.246 c 34.965 86.246 34.91 86.27 34.867 86.312 c
 34.82 86.359 34.801 86.414 34.801 86.484 c 34.801 86.527 34.828 86.59 34.891
 86.676 c 35.801 87.938 l 34.305 88.41 l 34.258 88.422 l 34.211 88.43 34.172
 88.457 34.133 88.5 c 34.098 88.547 34.078 88.594 34.078 88.648 c 34.078
 88.707 34.102 88.762 34.145 88.805 c 34.191 88.852 34.242 88.871 34.305
 88.871 c 34.324 88.871 34.375 88.863 34.449 88.84 c 35.949 88.367 l 49.469
 77.09 m 49.469 78.656 l 49.469 78.859 49.551 78.961 49.707 78.961 c 49.859
 78.961 49.934 78.859 49.934 78.656 c 49.934 77.09 l 51.434 77.574 l 51.492
 77.598 51.547 77.609 51.602 77.609 c 51.652 77.609 51.703 77.586 51.746
 77.543 c 51.793 77.496 51.816 77.445 51.816 77.383 c 51.816 77.27 51.738
 77.188 51.578 77.137 c 50.078 76.66 l 50.992 75.398 l 51.047 75.309 51.07
 75.242 51.07 75.195 c 51.07 75.137 51.051 75.082 51.004 75.039 c 50.957
 74.992 50.906 74.969 50.848 74.969 c 50.77 74.969 50.695 75.023 50.621 
75.129 c 49.695 76.391 l 48.781 75.129 l 48.699 75.023 48.621 74.969 48.547
 74.969 c 48.484 74.969 48.434 74.992 48.387 75.039 c 48.344 75.082 48.32
 75.141 48.32 75.207 c 48.32 75.254 48.352 75.316 48.41 75.398 c 49.324 
76.66 l 47.824 77.137 l 47.777 77.148 l 47.734 77.152 47.691 77.18 47.656
 77.227 c 47.617 77.27 47.598 77.32 47.598 77.371 c 47.598 77.434 47.621
 77.484 47.668 77.531 c 47.711 77.574 47.766 77.598 47.824 77.598 c 47.848
 77.598 47.895 77.586 47.973 77.562 c 49.469 77.09 l 69.754 65.816 m 69.754
 67.383 l 69.754 67.586 69.832 67.688 69.988 67.688 c 70.141 67.688 70.215
 67.586 70.215 67.383 c 70.215 65.816 l 71.715 66.301 l 71.773 66.324 71.832
 66.332 71.883 66.332 c 71.938 66.332 71.984 66.312 72.031 66.266 c 72.074
 66.223 72.098 66.168 72.098 66.109 c 72.098 65.996 72.02 65.914 71.859 
65.859 c 70.359 65.387 l 71.273 64.125 l 71.328 64.035 71.352 63.965 71.352
 63.922 c 71.352 63.859 71.332 63.809 71.285 63.762 c 71.242 63.719 71.188
 63.695 71.129 63.695 c 71.055 63.695 70.977 63.75 70.902 63.852 c 69.977
 65.117 l 69.066 63.852 l 68.98 63.75 68.902 63.695 68.828 63.695 c 68.77
 63.695 68.715 63.719 68.672 63.762 c 68.625 63.809 68.602 63.863 68.602
 63.934 c 68.602 63.977 68.633 64.043 68.691 64.125 c 69.605 65.387 l 68.105
 65.859 l 68.062 65.871 l 68.016 65.879 67.977 65.906 67.938 65.949 c 67.898
 65.996 67.879 66.043 67.879 66.098 c 67.879 66.156 67.902 66.211 67.949
 66.254 c 67.992 66.301 68.047 66.324 68.105 66.324 c 68.129 66.324 68.176
 66.312 68.254 66.289 c 69.754 65.816 l 96.797 54.539 m 96.797 56.105 l 
96.797 56.309 96.875 56.41 97.031 56.41 c 97.184 56.41 97.258 56.309 97.258
 56.105 c 97.258 54.539 l 98.758 55.023 l 98.816 55.047 98.875 55.059 98.926
 55.059 c 98.98 55.059 99.027 55.035 99.074 54.992 c 99.117 54.945 99.141
 54.895 99.141 54.832 c 99.141 54.719 99.062 54.637 98.902 54.586 c 97.402
 54.113 l 98.316 52.848 l 98.371 52.758 98.395 52.691 98.395 52.645 c 98.395
 52.586 98.375 52.531 98.328 52.488 c 98.285 52.441 98.23 52.422 98.172 
52.422 c 98.094 52.422 98.02 52.473 97.945 52.578 c 97.02 53.84 l 96.105
 52.578 l 96.023 52.473 95.945 52.422 95.871 52.422 c 95.809 52.422 95.758
 52.441 95.711 52.488 c 95.668 52.531 95.645 52.59 95.645 52.656 c 95.645
 52.703 95.676 52.766 95.734 52.848 c 96.648 54.113 l 95.148 54.586 l 95.105
 54.598 l 95.059 54.605 95.016 54.629 94.98 54.676 c 94.941 54.719 94.922
 54.77 94.922 54.82 c 94.922 54.883 94.945 54.934 94.992 54.98 c 95.035 
55.023 95.09 55.047 95.148 55.047 c 95.172 55.047 95.219 55.035 95.297 55.012
 c 96.797 54.539 l 126.543 43.105 m 126.543 42.902 126.465 42.801 126.309
 42.801 c 126.172 42.801 126.098 42.895 126.082 43.074 c 126.059 43.418 
125.852 43.719 125.461 43.977 c 125.078 44.23 124.633 44.359 124.133 44.359
 c 123.508 44.359 122.973 44.117 122.531 43.637 c 122.086 43.164 121.863
 42.594 121.863 41.922 c 121.863 41.121 l 121.863 40.445 122.109 39.855 
122.598 39.352 c 123.086 38.855 123.66 38.609 124.324 38.609 c 124.715 38.609
 125.062 38.688 125.371 38.844 c 125.68 39.004 125.984 39.262 126.285 39.621
 c 126.352 39.699 126.422 39.734 126.488 39.734 c 126.637 39.734 126.715
 39.664 126.715 39.523 c 126.715 39.402 126.57 39.211 126.285 38.945 c 125.715
 38.414 125.059 38.145 124.324 38.145 c 123.555 38.145 122.875 38.438 122.281
 39.027 c 121.695 39.621 121.402 40.297 121.402 41.055 c 121.402 41.992 
l 121.402 42.336 121.473 42.691 121.617 43.051 c 121.766 43.418 121.961 
43.73 122.203 43.988 c 122.723 44.543 123.363 44.82 124.133 44.82 c 124.426
 44.82 124.723 44.777 125.023 44.688 c 125.328 44.602 125.637 44.422 125.945
 44.145 c 126.254 43.875 126.453 43.527 126.543 43.105 c 137.598 44.82 m
 138.395 44.82 139.059 44.492 139.594 43.84 c 140.133 43.195 140.402 42.395
 140.402 41.438 c 140.402 40.527 140.129 39.75 139.582 39.105 c 139.031 
38.465 138.371 38.145 137.598 38.145 c 136.812 38.145 136.148 38.469 135.602
 39.117 c 135.059 39.762 134.789 40.551 134.789 41.484 c 134.789 42.414 
135.059 43.203 135.602 43.852 c 136.148 44.496 136.812 44.82 137.598 44.82
 c 137.598 44.359 m 136.949 44.359 136.398 44.078 135.938 43.512 c 135.48
 42.949 135.25 42.273 135.25 41.484 c 135.25 40.695 135.48 40.02 135.938
 39.453 c 136.398 38.891 136.949 38.609 137.598 38.609 c 138.234 38.609 
138.785 38.887 139.242 39.441 c 139.707 40.008 139.941 40.676 139.941 41.449
 c 139.941 42.262 139.711 42.949 139.254 43.512 c 138.801 44.078 138.25 
44.359 137.598 44.359 c 148.895 38.328 m 148.895 44.676 l 149.484 44.676
 l 152.922 38.992 l 152.922 44.676 l 153.383 44.676 l 153.383 38.328 l 152.797
 38.328 l 149.359 44.008 l 149.359 38.328 l 148.895 38.328 l 162.293 39.895
 m 162.293 40.098 162.371 40.199 162.531 40.199 c 162.672 40.199 162.75 
40.109 162.758 39.926 c 162.77 39.559 162.961 39.246 163.332 38.992 c 163.699
 38.734 164.141 38.609 164.648 38.609 c 165.176 38.609 165.613 38.742 165.957
 39.016 c 166.312 39.293 166.488 39.637 166.488 40.051 c 166.488 40.48 166.32
 40.797 165.98 41 c 165.762 41.141 165.328 41.27 164.672 41.383 c 163.949
 41.504 163.441 41.676 163.141 41.902 c 162.75 42.172 162.555 42.562 162.555
 43.074 c 162.555 43.57 162.75 43.984 163.141 44.312 c 163.539 44.652 164.035
 44.82 164.629 44.82 c 165.281 44.82 165.797 44.641 166.172 44.281 c 166.547
 43.918 166.734 43.562 166.734 43.207 c 166.734 43.004 166.66 42.902 166.512
 42.902 c 166.359 42.902 166.281 42.996 166.273 43.176 c 166.25 43.512 166.086
 43.793 165.777 44.02 c 165.469 44.246 165.098 44.359 164.66 44.359 c 164.195
 44.359 163.809 44.234 163.5 43.988 c 163.199 43.738 163.051 43.43 163.051
 43.062 c 163.051 42.695 163.195 42.406 163.488 42.203 c 163.746 42.039 
164.168 41.906 164.762 41.809 c 165.5 41.684 166.008 41.531 166.285 41.359
 c 166.75 41.074 166.984 40.629 166.984 40.027 c 166.984 39.48 166.766 39.027
 166.332 38.676 c 165.895 38.324 165.34 38.145 164.66 38.145 c 164.047 38.145
 163.496 38.328 163.016 38.688 c 162.535 39.055 162.293 39.457 162.293 39.895
 c 175.59 44.676 m 180.73 44.676 l 180.73 44.211 l 178.398 44.211 l 178.398
 38.328 l 177.934 38.328 l 177.934 44.211 l 175.59 44.211 l 175.59 44.676
 l 188.887 38.328 m 191.254 44.676 l 192.02 44.676 l 194.41 38.328 l 193.926
 38.328 l 193.125 40.445 l 190.125 40.445 l 189.348 38.328 l 188.887 38.328
 l 192.957 40.91 m 191.691 44.211 l 191.523 44.211 l 190.305 40.91 l 192.957
 40.91 l 202.98 38.328 m 202.98 44.676 l 203.566 44.676 l 207.008 38.992
 l 207.008 44.676 l 207.469 44.676 l 207.469 38.328 l 206.883 38.328 l 203.445
 44.008 l 203.445 38.328 l 202.98 38.328 l 216.152 44.676 m 221.297 44.676
 l 221.297 44.211 l 218.961 44.211 l 218.961 38.328 l 218.5 38.328 l 218.5
 44.211 l 216.152 44.211 l 216.152 44.676 l 18.531 20.477 m 17.492 15.777
 l 16.93 15.777 l 15.902 18.695 l 14.898 15.777 l 14.324 15.777 l 13.266
 20.477 l 13.715 20.477 l 14.629 16.406 l 15.598 19.281 l 16.176 19.281 
l 17.18 16.406 l 18.059 20.477 l 18.531 20.477 l 25.293 20.477 m 24.254 
15.777 l 23.691 15.777 l 22.664 18.695 l 21.66 15.777 l 21.086 15.777 l 
20.027 20.477 l 20.477 20.477 l 21.391 16.406 l 22.359 19.281 l 22.934 19.281
 l 23.938 16.406 l 24.816 20.477 l 25.293 20.477 l 32.051 20.477 m 31.016
 15.777 l 30.449 15.777 l 29.426 18.695 l 28.422 15.777 l 27.848 15.777 
l 26.785 20.477 l 27.238 20.477 l 28.152 16.406 l 29.121 19.281 l 29.695
 19.281 l 30.699 16.406 l 31.578 20.477 l 32.051 20.477 l 36.129 17.086 
m 36.242 17.086 l 36.461 17.082 36.645 17.012 36.793 16.871 c 36.945 16.734
 37.02 16.562 37.02 16.352 c 37.02 16.141 36.945 15.965 36.793 15.82 c 36.645
 15.68 36.461 15.605 36.242 15.605 c 36.129 15.605 l 35.91 15.605 35.727
 15.68 35.578 15.82 c 35.426 15.965 35.352 16.141 35.352 16.352 c 35.352
 16.562 35.426 16.734 35.578 16.871 c 35.727 17.012 35.91 17.082 36.129 
17.086 c 45.324 19.137 m 45.324 18.934 45.25 18.832 45.102 18.832 c 44.965
 18.832 44.887 18.922 44.863 19.102 c 44.84 19.402 44.652 19.656 44.301 
19.859 c 43.953 20.066 43.543 20.172 43.07 20.172 c 42.445 20.172 41.938
 19.977 41.547 19.586 c 41.164 19.203 40.973 18.703 40.973 18.086 c 40.973
 17.492 41.168 17.004 41.559 16.621 c 41.949 16.246 42.453 16.059 43.07 
16.059 c 43.891 16.059 44.594 16.328 45.18 16.871 c 45.254 16.945 45.32 
16.984 45.383 16.984 c 45.441 16.984 45.492 16.961 45.527 16.914 c 45.574
 16.879 45.598 16.828 45.598 16.77 c 45.598 16.617 45.434 16.434 45.109 
16.215 c 44.512 15.801 43.82 15.594 43.047 15.594 c 42.312 15.594 41.703
 15.828 41.223 16.293 c 40.746 16.762 40.512 17.355 40.512 18.078 c 40.512
 18.82 40.754 19.434 41.242 19.914 c 41.734 20.395 42.352 20.637 43.105 
20.637 c 43.301 20.637 43.504 20.613 43.715 20.566 c 43.922 20.523 44.145
 20.449 44.379 20.344 c 44.613 20.246 44.812 20.09 44.988 19.879 c 45.16
 19.668 45.273 19.422 45.324 19.137 c 49.707 20.637 m 50.43 20.637 51.039
 20.387 51.535 19.891 c 52.031 19.402 52.277 18.801 52.277 18.086 c 52.277
 17.395 52.027 16.805 51.523 16.316 c 51.02 15.836 50.414 15.594 49.707 
15.594 c 48.992 15.594 48.383 15.84 47.879 16.328 c 47.383 16.816 47.137
 17.414 47.137 18.121 c 47.137 18.812 47.383 19.402 47.879 19.891 c 48.383
 20.387 48.992 20.637 49.707 20.637 c 49.707 20.172 m 49.121 20.172 48.621
 19.973 48.207 19.574 c 47.801 19.176 47.598 18.691 47.598 18.121 c 47.598
 17.551 47.801 17.062 48.207 16.656 c 48.621 16.258 49.121 16.059 49.707
 16.059 c 50.285 16.059 50.781 16.258 51.195 16.656 c 51.609 17.055 51.816
 17.531 51.816 18.086 c 51.816 18.68 51.613 19.176 51.207 19.574 c 50.801
 19.973 50.301 20.172 49.707 20.172 c 54.969 20.477 m 54.969 19.699 l 55.293
 20.062 55.578 20.305 55.824 20.434 c 56.074 20.566 56.375 20.637 56.727
 20.637 c 57.23 20.637 57.652 20.488 57.988 20.195 c 58.328 19.902 58.496
 19.539 58.496 19.102 c 58.496 15.777 l 58.035 15.777 l 58.035 19.023 l 
58.035 19.355 57.891 19.641 57.605 19.879 c 57.375 20.074 57.066 20.172 
56.684 20.172 c 56.27 20.172 55.91 20.051 55.609 19.801 c 55.477 19.703 
55.262 19.469 54.969 19.09 c 54.969 15.777 l 54.508 15.777 l 54.508 20.477
 l 54.969 20.477 l 61.242 17.32 m 61.312 17.32 61.363 17.297 61.402 17.254
 c 61.445 17.207 61.469 17.148 61.469 17.074 c 61.469 16.992 l 61.469 16.738
 61.641 16.516 61.977 16.328 c 62.316 16.148 62.727 16.059 63.207 16.059
 c 63.703 16.059 64.117 16.156 64.445 16.352 c 64.777 16.547 64.941 16.793
 64.941 17.094 c 64.941 17.387 64.777 17.625 64.445 17.805 c 64.184 17.949
 63.777 18.051 63.227 18.109 c 62.523 18.184 62.035 18.305 61.762 18.473
 c 61.418 18.695 61.242 18.992 61.242 19.363 c 61.242 19.73 61.426 20.035
 61.785 20.273 c 62.152 20.516 62.617 20.637 63.172 20.637 c 63.758 20.637
 64.246 20.488 64.637 20.195 c 64.805 20.066 64.93 19.93 65.02 19.777 c 
65.117 19.637 65.172 19.5 65.18 19.371 c 65.18 19.367 65.18 19.359 65.18
 19.352 c 65.18 19.176 65.105 19.086 64.953 19.078 c 64.816 19.078 64.738
 19.168 64.719 19.34 c 64.688 19.594 64.535 19.797 64.266 19.949 c 63.996
 20.098 63.645 20.172 63.219 20.172 c 62.797 20.172 62.445 20.09 62.168 
19.926 c 61.891 19.766 61.75 19.566 61.75 19.328 c 61.75 19.125 61.871 18.957
 62.113 18.82 c 62.238 18.738 62.367 18.68 62.496 18.652 c 62.625 18.629
 62.93 18.59 63.422 18.539 c 64.066 18.465 64.555 18.316 64.887 18.098 c
 65.262 17.844 65.449 17.504 65.449 17.086 c 65.449 16.656 65.238 16.297
 64.816 16.012 c 64.406 15.734 63.879 15.594 63.238 15.594 c 62.52 15.594
 61.938 15.785 61.492 16.16 c 61.191 16.422 61.031 16.703 61.008 17.004 
c 61.008 17.039 l 61.008 17.227 61.086 17.32 61.242 17.32 c 68.703 20.477
 m 71.184 20.477 l 71.387 20.477 71.488 20.402 71.488 20.254 c 71.488 20.094
 71.387 20.016 71.184 20.016 c 68.703 20.016 l 68.703 17.004 l 68.703 16.719
 68.816 16.488 69.043 16.316 c 69.266 16.145 69.574 16.059 69.965 16.059
 c 70.281 16.059 70.617 16.098 70.969 16.184 c 71.332 16.273 71.621 16.383
 71.84 16.508 c 71.914 16.555 71.973 16.578 72.02 16.578 c 72.07 16.578 
72.121 16.555 72.164 16.508 c 72.211 16.465 72.234 16.41 72.234 16.352 c
 72.234 16.188 71.977 16.016 71.465 15.844 c 70.961 15.68 70.469 15.594 
69.988 15.594 c 69.457 15.594 69.031 15.719 68.715 15.969 c 68.398 16.223
 68.242 16.562 68.242 16.984 c 68.242 20.016 l 67.406 20.016 l 67.195 20.016
 67.09 20.094 67.09 20.254 c 67.09 20.402 67.195 20.477 67.406 20.477 c 
68.242 20.477 l 68.242 21.82 l 68.242 22.023 68.32 22.125 68.477 22.125 
c 68.629 22.125 68.703 22.023 68.703 21.82 c 68.703 20.477 l 78.09 15.777
 m 78.09 16.531 l 77.422 15.906 76.703 15.594 75.938 15.594 c 75.41 15.594
 74.988 15.727 74.664 15.992 c 74.34 16.262 74.18 16.609 74.18 17.039 c 
74.18 17.527 74.398 17.922 74.832 18.223 c 75.277 18.531 75.852 18.684 76.559
 18.684 c 77 18.684 77.512 18.605 78.09 18.449 c 78.09 19.25 l 78.09 19.527
 77.965 19.75 77.707 19.914 c 77.453 20.086 77.117 20.172 76.703 20.172 
c 76.367 20.172 75.832 20.062 75.105 19.836 c 75.043 19.82 75.008 19.812
 74.992 19.812 c 74.93 19.812 74.879 19.836 74.832 19.879 c 74.797 19.926
 74.777 19.977 74.777 20.039 c 74.777 20.152 74.84 20.23 74.969 20.273 c
 75.668 20.516 76.258 20.637 76.738 20.637 c 77.266 20.637 77.695 20.504
 78.035 20.242 c 78.383 19.977 78.555 19.648 78.555 19.25 c 78.555 15.777
 l 78.09 15.777 l 78.09 17.039 m 78.09 18.055 l 77.641 18.168 77.16 18.223
 76.648 18.223 c 76.055 18.223 75.57 18.109 75.195 17.883 c 74.824 17.668
 74.641 17.383 74.641 17.027 c 74.641 16.734 74.758 16.496 74.992 16.316
 c 75.223 16.145 75.535 16.059 75.926 16.059 c 76.324 16.059 76.691 16.133
 77.02 16.285 c 77.359 16.434 77.715 16.688 78.09 17.039 c 82.012 20.477
 m 82.012 19.699 l 82.336 20.062 82.621 20.305 82.867 20.434 c 83.117 20.566
 83.418 20.637 83.77 20.637 c 84.273 20.637 84.695 20.488 85.031 20.195 
c 85.371 19.902 85.539 19.539 85.539 19.102 c 85.539 15.777 l 85.078 15.777
 l 85.078 19.023 l 85.078 19.355 84.934 19.641 84.648 19.879 c 84.418 20.074
 84.109 20.172 83.727 20.172 c 83.312 20.172 82.953 20.051 82.652 19.801
 c 82.52 19.703 82.305 19.469 82.012 19.09 c 82.012 15.777 l 81.547 15.777
 l 81.547 20.477 l 82.012 20.477 l 88.984 20.477 m 91.465 20.477 l 91.668
 20.477 91.77 20.402 91.77 20.254 c 91.77 20.094 91.668 20.016 91.465 20.016
 c 88.984 20.016 l 88.984 17.004 l 88.984 16.719 89.098 16.488 89.324 16.316
 c 89.551 16.145 89.859 16.059 90.25 16.059 c 90.562 16.059 90.898 16.098
 91.254 16.184 c 91.613 16.273 91.902 16.383 92.121 16.508 c 92.195 16.555
 92.254 16.578 92.301 16.578 c 92.352 16.578 92.402 16.555 92.449 16.508
 c 92.492 16.465 92.516 16.41 92.516 16.352 c 92.516 16.188 92.258 16.016
 91.75 15.844 c 91.246 15.68 90.754 15.594 90.27 15.594 c 89.738 15.594 
89.312 15.719 88.996 15.969 c 88.68 16.223 88.523 16.562 88.523 16.984 c
 88.523 20.016 l 87.688 20.016 l 87.48 20.016 87.375 20.094 87.375 20.254
 c 87.375 20.402 87.48 20.477 87.688 20.477 c 88.523 20.477 l 88.523 21.82
 l 88.523 22.023 88.602 22.125 88.762 22.125 c 88.91 22.125 88.984 22.023
 88.984 21.82 c 88.984 20.477 l 99.512 20.477 m 97.438 15.777 l 96.648 15.777
 l 94.551 20.477 l 95.059 20.477 l 96.953 16.238 l 97.168 16.238 l 99.027
 20.477 l 99.512 20.477 l 105.922 15.777 m 101.707 15.777 l 101.707 16.184
 l 105.102 20.016 l 101.809 20.016 l 101.809 20.477 l 105.754 20.477 l 105.754
 20.07 l 102.34 16.238 l 105.922 16.238 l 105.922 15.777 l 113.18 20.477
 m 112.145 15.777 l 111.578 15.777 l 110.555 18.695 l 109.551 15.777 l 108.977
 15.777 l 107.914 20.477 l 108.367 20.477 l 109.277 16.406 l 110.25 19.281
 l 110.824 19.281 l 111.828 16.406 l 112.707 20.477 l 113.18 20.477 l 117.258
 17.086 m 117.371 17.086 l 117.59 17.082 117.773 17.012 117.922 16.871 c
 118.074 16.734 118.148 16.562 118.148 16.352 c 118.148 16.141 118.074 15.965
 117.922 15.82 c 117.773 15.68 117.59 15.605 117.371 15.605 c 117.258 15.605
 l 117.039 15.605 116.855 15.68 116.707 15.82 c 116.555 15.965 116.48 16.141
 116.48 16.352 c 116.48 16.562 116.555 16.734 116.707 16.871 c 116.855 17.012
 117.039 17.082 117.258 17.086 c 124.074 20.637 m 124.797 20.637 125.406
 20.387 125.902 19.891 c 126.398 19.402 126.645 18.801 126.645 18.086 c 
126.645 17.395 126.395 16.805 125.891 16.316 c 125.387 15.836 124.781 15.594
 124.074 15.594 c 123.359 15.594 122.75 15.84 122.25 16.328 c 121.754 16.816
 121.504 17.414 121.504 18.121 c 121.504 18.812 121.754 19.402 122.25 19.891
 c 122.75 20.387 123.359 20.637 124.074 20.637 c 124.074 20.172 m 123.488
 20.172 122.988 19.973 122.574 19.574 c 122.168 19.176 121.965 18.691 121.965
 18.121 c 121.965 17.551 122.168 17.062 122.574 16.656 c 122.988 16.258 
123.488 16.059 124.074 16.059 c 124.652 16.059 125.148 16.258 125.562 16.656
 c 125.977 17.055 126.184 17.531 126.184 18.086 c 126.184 18.68 125.98 19.176
 125.574 19.574 c 125.168 19.973 124.668 20.172 124.074 20.172 c 130.25 
20.477 m 130.25 19.328 l 130.77 19.801 131.188 20.129 131.512 20.309 c 131.836
 20.496 132.141 20.59 132.426 20.59 c 132.727 20.59 133.016 20.473 133.293
 20.242 c 133.465 20.098 133.551 19.98 133.551 19.891 c 133.551 19.824 133.531
 19.766 133.484 19.723 c 133.441 19.676 133.383 19.656 133.316 19.656 c 
133.254 19.656 133.195 19.684 133.137 19.746 c 132.871 20 132.625 20.129
 132.391 20.129 c 132.137 20.129 131.867 20.039 131.59 19.859 c 131.32 19.676
 130.871 19.301 130.25 18.73 c 130.25 15.777 l 129.785 15.777 l 129.785 
20.477 l 130.25 20.477 l 139.176 20.477 m 139.637 20.477 l 139.637 15.461
 l 139.637 15.023 139.477 14.633 139.152 14.289 c 138.77 13.883 138.309 
13.68 137.777 13.68 c 136.492 13.68 l 136.289 13.68 136.188 13.758 136.188
 13.914 c 136.188 14.066 136.289 14.141 136.492 14.141 c 137.801 14.141 
l 138.184 14.141 138.504 14.277 138.77 14.547 c 139.039 14.816 139.176 15.145
 139.176 15.527 c 139.176 16.984 l 138.68 16.254 138.035 15.891 137.246 
15.891 c 136.609 15.891 136.059 16.121 135.602 16.586 c 135.148 17.055 134.926
 17.613 134.926 18.27 c 134.926 18.922 135.148 19.477 135.602 19.938 c 136.059
 20.402 136.609 20.637 137.246 20.637 c 138.043 20.637 138.688 20.27 139.176
 19.543 c 139.176 20.477 l 137.281 20.172 m 136.754 20.172 136.309 19.988
 135.938 19.621 c 135.57 19.254 135.387 18.801 135.387 18.27 c 135.387 17.734
 135.57 17.281 135.938 16.902 c 136.309 16.535 136.754 16.352 137.281 16.352
 c 137.805 16.352 138.254 16.535 138.621 16.902 c 138.992 17.273 139.176
 17.719 139.176 18.246 c 139.176 18.793 138.992 19.254 138.621 19.621 c 
138.262 19.988 137.812 20.172 137.281 20.172 c f
Q Q
showpage
%%Trailer
%%EOF
