<?xml version="1.0" encoding="UTF-8" standalone="no"?>
<!-- Generator: Adobe Illustrator 13.0.2, SVG Export Plug-In . SVG Version: 6.00 Build 14948)  -->
<svg
   xmlns:dc="http://purl.org/dc/elements/1.1/"
   xmlns:cc="http://creativecommons.org/ns#"
   xmlns:rdf="http://www.w3.org/1999/02/22-rdf-syntax-ns#"
   xmlns:svg="http://www.w3.org/2000/svg"
   xmlns="http://www.w3.org/2000/svg"
   xmlns:sodipodi="http://sodipodi.sourceforge.net/DTD/sodipodi-0.dtd"
   xmlns:inkscape="http://www.inkscape.org/namespaces/inkscape"
   version="1.0"
   id="Layer_1"
   x="0px"
   y="0px"
   width="300"
   height="200"
   viewBox="0 0 1868 508.875"
   enable-background="new 0 0 1868 508.875"
   xml:space="preserve"
   sodipodi:version="0.32"
   inkscape:version="0.46"
   sodipodi:docname="constant-logo.svg"
   inkscape:output_extension="org.inkscape.output.svg.inkscape"><metadata
   id="metadata70"><rdf:RDF><cc:Work
       rdf:about=""><dc:format>image/svg+xml</dc:format><dc:type
         rdf:resource="http://purl.org/dc/dcmitype/StillImage" /></cc:Work></rdf:RDF></metadata><defs
   id="defs68"><inkscape:perspective
     sodipodi:type="inkscape:persp3d"
     inkscape:vp_x="0 : 254.4375 : 1"
     inkscape:vp_y="0 : 1000 : 0"
     inkscape:vp_z="1868 : 254.4375 : 1"
     inkscape:persp3d-origin="934 : 169.625 : 1"
     id="perspective72" /></defs><sodipodi:namedview
   inkscape:window-height="800"
   inkscape:window-width="1280"
   inkscape:pageshadow="2"
   inkscape:pageopacity="0.0"
   guidetolerance="10.0"
   gridtolerance="10.0"
   objecttolerance="10.0"
   borderopacity="1.0"
   bordercolor="#666666"
   pagecolor="#ffffff"
   id="base"
   showgrid="false"
   inkscape:zoom="1.6023978"
   inkscape:cx="169.75892"
   inkscape:cy="38.293307"
   inkscape:window-x="1"
   inkscape:window-y="22"
   inkscape:current-layer="Layer_1"
   units="cm" />
















<path
   style="font-size:95.73636627px;font-style:normal;font-variant:normal;font-weight:normal;font-stretch:normal;text-align:start;line-height:100%;writing-mode:lr-tb;text-anchor:start;font-family:NotCourier-sans_Paulo;-inkscape-font-specification:NotCourier-sans_Paulo"
   d="M 437.66476,-249.46603 L 437.66476,-261.66443 C 437.66473,-263.24403 438.27904,-264.03386 439.50768,-264.03391 C 440.67777,-264.03386 441.26282,-263.24403 441.26285,-261.66443 L 441.26285,-249.46603 L 452.93471,-253.23964 C 453.40271,-253.41511 453.8415,-253.50287 454.25108,-253.50291 C 454.66058,-253.50287 455.04087,-253.32735 455.39194,-252.97636 C 455.74293,-252.62529 455.91845,-252.21575 455.91849,-251.74774 C 455.91845,-250.87012 455.30414,-250.22656 454.07557,-249.81706 L 442.40371,-246.13121 L 449.51213,-236.30228 C 449.92163,-235.60019 450.1264,-235.07364 450.12644,-234.72263 C 450.1264,-234.25456 449.95089,-233.84502 449.59989,-233.49401 C 449.24882,-233.14296 448.83928,-232.96744 448.37127,-232.96746 C 447.78618,-232.96744 447.20113,-233.37698 446.61611,-234.19608 L 439.41992,-244.02501 L 432.3115,-234.19608 C 431.66792,-233.37698 431.05361,-232.96744 430.46857,-232.96746 C 430.00051,-232.96744 429.59097,-233.14296 429.23996,-233.49401 C 428.88891,-233.84502 428.71339,-234.28381 428.71341,-234.81039 C 428.71339,-235.16139 428.94741,-235.65869 429.41547,-236.30228 L 436.5239,-246.13121 L 424.85204,-249.81706 L 424.50101,-249.90482 C 424.14996,-249.96329 423.82818,-250.16805 423.53567,-250.51913 C 423.24313,-250.87012 423.09686,-251.25041 423.09687,-251.65999 C 423.09686,-252.12799 423.27238,-252.53753 423.62342,-252.8886 C 423.97445,-253.23959 424.38399,-253.41511 424.85204,-253.41515 C 425.02755,-253.41511 425.40783,-253.32735 425.9929,-253.15188 L 437.66476,-249.46603 M 227.18189,-161.7077 L 227.18189,-173.9061 C 227.18187,-175.4857 227.79618,-176.27553 229.02482,-176.27558 C 230.1949,-176.27553 230.77996,-175.4857 230.77999,-173.9061 L 230.77999,-161.7077 L 242.45184,-165.4813 C 242.91985,-165.65678 243.35864,-165.74454 243.76822,-165.74458 C 244.17772,-165.74454 244.558,-165.56902 244.90908,-165.21803 C 245.26007,-164.86695 245.43558,-164.45742 245.43563,-163.98941 C 245.43558,-163.11179 244.82128,-162.46823 243.5927,-162.05873 L 231.92084,-158.37288 L 239.02927,-148.54395 C 239.43877,-147.84185 239.64354,-147.31531 239.64358,-146.9643 C 239.64354,-146.49623 239.46802,-146.08669 239.11703,-145.73568 C 238.76596,-145.38462 238.35642,-145.20911 237.88841,-145.20913 C 237.30332,-145.20911 236.71826,-145.61865 236.13324,-146.43775 L 228.93706,-156.26668 L 221.82864,-146.43775 C 221.18506,-145.61865 220.57075,-145.20911 219.98571,-145.20913 C 219.51765,-145.20911 219.10811,-145.38462 218.75709,-145.73568 C 218.40604,-146.08669 218.23053,-146.52548 218.23054,-147.05205 C 218.23053,-147.40306 218.46455,-147.90036 218.93261,-148.54395 L 226.04104,-158.37288 L 214.36918,-162.05873 L 214.01814,-162.14649 C 213.6671,-162.20495 213.34532,-162.40972 213.0528,-162.7608 C 212.76026,-163.11179 212.614,-163.49207 212.61401,-163.90165 C 212.614,-164.36966 212.78952,-164.7792 213.14056,-165.13027 C 213.49158,-165.48126 213.90112,-165.65678 214.36918,-165.65682 C 214.54468,-165.65678 214.92497,-165.56902 215.51004,-165.39355 L 227.18189,-161.7077 M 121.94045,-73.949364 L 121.94045,-86.147772 C 121.94043,-87.72737 122.55474,-88.517194 123.78338,-88.517247 C 124.95346,-88.517194 125.53852,-87.72737 125.53855,-86.147772 L 125.53855,-73.949364 L 137.2104,-77.722973 C 137.67841,-77.898447 138.1172,-77.986205 138.52678,-77.986248 C 138.93628,-77.986205 139.31656,-77.810689 139.66764,-77.459698 C 140.01863,-77.108623 140.19414,-76.699084 140.19419,-76.231081 C 140.19414,-75.353458 139.57984,-74.709897 138.35126,-74.300398 L 126.6794,-70.614548 L 133.78783,-60.785615 C 134.19733,-60.083523 134.4021,-59.556974 134.40214,-59.205965 C 134.4021,-58.737897 134.22658,-58.328359 133.87559,-57.977348 C 133.52452,-57.626293 133.11498,-57.450776 132.64697,-57.450798 C 132.06188,-57.450776 131.47682,-57.860315 130.8918,-58.679415 L 123.69562,-68.508348 L 116.5872,-58.679415 C 115.94362,-57.860315 115.32931,-57.450776 114.74427,-57.450798 C 114.27621,-57.450776 113.86667,-57.626293 113.51565,-57.977348 C 113.1646,-58.328359 112.98909,-58.76715 112.9891,-59.293723 C 112.98909,-59.644732 113.22311,-60.142029 113.69117,-60.785615 L 120.7996,-70.614548 L 109.12774,-74.300398 L 108.7767,-74.388156 C 108.42566,-74.446623 108.10388,-74.651392 107.81136,-75.002464 C 107.51882,-75.353458 107.37256,-75.733743 107.37257,-76.143323 C 107.37256,-76.611326 107.54808,-77.020864 107.89912,-77.371939 C 108.25014,-77.72293 108.65968,-77.898447 109.12774,-77.898489 C 109.30324,-77.898447 109.68353,-77.810689 110.2686,-77.635214 L 121.94045,-73.949364 M 121.94045,13.808967 L 121.94045,1.6105589 C 121.94043,0.030961182 122.55474,-0.75886301 123.78338,-0.75891602 C 124.95346,-0.75886301 125.53852,0.030961182 125.53855,1.6105589 L 125.53855,13.808967 L 137.2104,10.035359 C 137.67841,9.8598845 138.1172,9.7721262 138.52678,9.7720837 C 138.93628,9.7721262 139.31656,9.9476427 139.66764,10.298634 C 140.01863,10.649709 140.19414,11.059247 140.19419,11.52725 C 140.19414,12.404874 139.57984,13.048434 138.35126,13.457934 L 126.6794,17.143784 L 133.78783,26.972717 C 134.19733,27.674808 134.4021,28.201357 134.40214,28.552367 C 134.4021,29.020434 134.22658,29.429973 133.87559,29.780983 C 133.52452,30.132039 133.11498,30.307555 132.64697,30.307533 C 132.06188,30.307555 131.47682,29.898017 130.8918,29.078917 L 123.69562,19.249984 L 116.5872,29.078917 C 115.94362,29.898017 115.32931,30.307555 114.74427,30.307533 C 114.27621,30.307555 113.86667,30.132039 113.51565,29.780983 C 113.1646,29.429973 112.98909,28.991182 112.9891,28.464608 C 112.98909,28.113599 113.22311,27.616302 113.69117,26.972717 L 120.7996,17.143784 L 109.12774,13.457934 L 108.7767,13.370175 C 108.42566,13.311709 108.10388,13.106939 107.81136,12.755867 C 107.51882,12.404874 107.37256,12.024588 107.37257,11.615009 C 107.37256,11.147005 107.54808,10.737467 107.89912,10.386392 C 108.25014,10.035401 108.65968,9.8598845 109.12774,9.8598421 C 109.30324,9.8598845 109.68353,9.9476427 110.2686,10.123117 L 121.94045,13.808967 M 174.56117,101.5673 L 174.56117,89.36889 C 174.56115,87.789292 175.17546,86.999468 176.4041,86.999415 C 177.57418,86.999468 178.15924,87.789292 178.15927,89.36889 L 178.15927,101.5673 L 189.83112,97.79369 C 190.29913,97.618216 190.73792,97.530458 191.1475,97.530415 C 191.557,97.530458 191.93728,97.705974 192.28836,98.056965 C 192.63935,98.40804 192.81486,98.817578 192.81491,99.285582 C 192.81486,100.1632 192.20056,100.80677 190.97198,101.21626 L 179.30012,104.90211 L 186.40855,114.73105 C 186.81805,115.43314 187.02282,115.95969 187.02286,116.3107 C 187.02282,116.77877 186.8473,117.1883 186.49631,117.53931 C 186.14524,117.89037 185.7357,118.06589 185.26769,118.06586 C 184.6826,118.06589 184.09754,117.65635 183.51252,116.83725 L 176.31634,107.00831 L 169.20792,116.83725 C 168.56434,117.65635 167.95003,118.06589 167.36499,118.06586 C 166.89693,118.06589 166.48739,117.89037 166.13637,117.53931 C 165.78532,117.1883 165.60981,116.74951 165.60982,116.22294 C 165.60981,115.87193 165.84383,115.37463 166.31189,114.73105 L 173.42032,104.90211 L 161.74846,101.21626 L 161.39742,101.12851 C 161.04638,101.07004 160.7246,100.86527 160.43208,100.5142 C 160.13954,100.1632 159.99328,99.782919 159.99329,99.37334 C 159.99328,98.905337 160.1688,98.495798 160.51984,98.144723 C 160.87086,97.793732 161.2804,97.618216 161.74846,97.618173 C 161.92396,97.618216 162.30425,97.705974 162.88932,97.881448 L 174.56117,101.5673 M 279.80261,189.32563 L 279.80261,177.12722 C 279.80258,175.54762 280.41689,174.7578 281.64553,174.75775 C 282.81561,174.7578 283.40067,175.54762 283.4007,177.12722 L 283.4007,189.32563 L 295.07256,185.55202 C 295.54056,185.37655 295.97935,185.28879 296.38893,185.28875 C 296.79843,185.28879 297.17871,185.46431 297.52979,185.8153 C 297.88078,186.16637 298.0563,186.57591 298.05634,187.04391 C 298.0563,187.92154 297.44199,188.5651 296.21341,188.9746 L 284.54156,192.66045 L 291.64998,202.48938 C 292.05948,203.19147 292.26425,203.71802 292.26429,204.06903 C 292.26425,204.5371 292.08874,204.94664 291.73774,205.29765 C 291.38667,205.6487 290.97713,205.82422 290.50912,205.8242 C 289.92403,205.82422 289.33898,205.41468 288.75396,204.59558 L 281.55777,194.76665 L 274.44935,204.59558 C 273.80577,205.41468 273.19146,205.82422 272.60642,205.8242 C 272.13836,205.82422 271.72882,205.6487 271.37781,205.29765 C 271.02676,204.94664 270.85124,204.50784 270.85126,203.98127 C 270.85124,203.63026 271.08526,203.13296 271.55332,202.48938 L 278.66175,192.66045 L 266.98989,188.9746 L 266.63886,188.88684 C 266.28781,188.82837 265.96603,188.6236 265.67351,188.27253 C 265.38098,187.92154 265.23471,187.54125 265.23472,187.13167 C 265.23471,186.66367 265.41023,186.25413 265.76127,185.90305 C 266.1123,185.55206 266.52183,185.37655 266.98989,185.3765 C 267.16539,185.37655 267.54568,185.46431 268.13075,185.63978 L 279.80261,189.32563 M 385.04406,277.08396 L 385.04406,264.88555 C 385.04404,263.30596 385.65834,262.51613 386.88699,262.51608 C 388.05707,262.51613 388.64212,263.30596 388.64215,264.88555 L 388.64215,277.08396 L 400.31401,273.31035 C 400.78201,273.13488 401.22081,273.04712 401.63039,273.04708 C 402.03988,273.04712 402.42017,273.22264 402.77124,273.57363 C 403.12223,273.9247 403.29775,274.33424 403.29779,274.80224 C 403.29775,275.67987 402.68344,276.32343 401.45487,276.73293 L 389.78301,280.41878 L 396.89144,290.24771 C 397.30094,290.9498 397.50571,291.47635 397.50574,291.82736 C 397.50571,292.29543 397.33019,292.70497 396.97919,293.05598 C 396.62812,293.40703 396.21859,293.58255 395.75058,293.58253 C 395.16549,293.58255 394.58043,293.17301 393.99541,292.35391 L 386.79923,282.52498 L 379.6908,292.35391 C 379.04722,293.17301 378.43292,293.58255 377.84788,293.58253 C 377.37982,293.58255 376.97028,293.40703 376.61926,293.05598 C 376.26821,292.70497 376.0927,292.26618 376.09271,291.7396 C 376.0927,291.38859 376.32672,290.8913 376.79478,290.24771 L 383.9032,280.41878 L 372.23134,276.73293 L 371.88031,276.64517 C 371.52927,276.5867 371.20749,276.38193 370.91497,276.03086 C 370.62243,275.67987 370.47617,275.29958 370.47618,274.89 C 370.47617,274.422 370.65168,274.01246 371.00273,273.66139 C 371.35375,273.31039 371.76329,273.13488 372.23134,273.13484 C 372.40685,273.13488 372.78713,273.22264 373.3722,273.39811 L 385.04406,277.08396 M 542.90621,364.84229 L 542.90621,352.64388 C 542.90619,351.06429 543.5205,350.27446 544.74914,350.27441 C 545.91922,350.27446 546.50428,351.06429 546.5043,352.64388 L 546.5043,364.84229 L 558.17616,361.06868 C 558.64417,360.89321 559.08296,360.80545 559.49254,360.80541 C 559.90203,360.80545 560.28232,360.98097 560.6334,361.33196 C 560.98439,361.68303 561.1599,362.09257 561.15995,362.56058 C 561.1599,363.4382 560.5456,364.08176 559.31702,364.49126 L 547.64516,368.17711 L 554.75359,378.00604 C 555.16309,378.70813 555.36786,379.23468 555.3679,379.58569 C 555.36786,380.05376 555.19234,380.4633 554.84135,380.81431 C 554.49028,381.16536 554.08074,381.34088 553.61273,381.34086 C 553.02764,381.34088 552.44258,380.93134 551.85756,380.11224 L 544.66138,370.28331 L 537.55295,380.11224 C 536.90938,380.93134 536.29507,381.34088 535.71003,381.34086 C 535.24197,381.34088 534.83243,381.16536 534.48141,380.81431 C 534.13036,380.4633 533.95485,380.02451 533.95486,379.49793 C 533.95485,379.14692 534.18887,378.64963 534.65693,378.00604 L 541.76535,368.17711 L 530.0935,364.49126 L 529.74246,364.4035 C 529.39142,364.34503 529.06964,364.14026 528.77712,363.78919 C 528.48458,363.4382 528.33832,363.05791 528.33833,362.64833 C 528.33832,362.18033 528.51384,361.77079 528.86488,361.41972 C 529.2159,361.06873 529.62544,360.89321 530.0935,360.89317 C 530.269,360.89321 530.64929,360.98097 531.23435,361.15644 L 542.90621,364.84229 M 753.38906,452.60062 L 753.38906,440.40222 C 753.38904,438.82262 754.00335,438.03279 755.23199,438.03274 C 756.40207,438.03279 756.98713,438.82262 756.98715,440.40222 L 756.98715,452.60062 L 768.65901,448.82702 C 769.12702,448.65154 769.56581,448.56378 769.97539,448.56374 C 770.38488,448.56378 770.76517,448.7393 771.11624,449.09029 C 771.46724,449.44137 771.64275,449.8509 771.64279,450.31891 C 771.64275,451.19653 771.02844,451.84009 769.79987,452.24959 L 758.12801,455.93544 L 765.23644,465.76437 C 765.64594,466.46646 765.85071,466.99301 765.85075,467.34402 C 765.85071,467.81209 765.67519,468.22163 765.3242,468.57264 C 764.97313,468.9237 764.56359,469.09921 764.09558,469.09919 C 763.51049,469.09921 762.92543,468.68967 762.34041,467.87057 L 755.14423,458.04164 L 748.0358,467.87057 C 747.39222,468.68967 746.77792,469.09921 746.19288,469.09919 C 745.72482,469.09921 745.31528,468.9237 744.96426,468.57264 C 744.61321,468.22163 744.4377,467.78284 744.43771,467.25626 C 744.4377,466.90526 744.67172,466.40796 745.13978,465.76437 L 752.2482,455.93544 L 740.57635,452.24959 L 740.22531,452.16183 C 739.87427,452.10337 739.55249,451.8986 739.25997,451.54752 C 738.96743,451.19653 738.82117,450.81624 738.82118,450.40667 C 738.82117,449.93866 738.99669,449.52912 739.34773,449.17805 C 739.69875,448.82706 740.10829,448.65154 740.57635,448.6515 C 740.75185,448.65154 741.13214,448.7393 741.7172,448.91477 L 753.38906,452.60062 M 984.93397,541.58757 C 984.93393,543.16726 984.31962,543.95708 983.09105,543.95705 C 982.0379,543.95708 981.45285,543.25502 981.33588,541.85085 C 981.16032,539.15963 979.55142,536.81941 976.50917,534.83018 C 973.52535,532.84104 970.07353,531.84644 966.15369,531.8464 C 961.29771,531.84644 957.14382,533.71862 953.69201,537.46293 C 950.24017,541.14882 948.51426,545.59524 948.51426,550.8022 L 948.51426,557.03304 C 948.51426,562.29855 950.41568,566.89124 954.21856,570.8111 C 958.0214,574.67247 962.49707,576.60315 967.64558,576.60315 C 970.68784,576.60315 973.40834,575.98884 975.80711,574.76022 C 978.20579,573.53161 980.57527,571.51317 982.91553,568.7049 C 983.44204,568.11985 983.96859,567.82732 984.49518,567.82731 C 985.66524,567.82732 986.2503,568.38313 986.25035,569.49472 C 986.2503,570.43082 985.1387,571.92271 982.91553,573.9704 C 978.46907,578.12429 973.37909,580.20124 967.64558,580.20124 C 961.67799,580.20124 956.38324,577.91952 951.76132,573.35609 C 947.19788,568.73416 944.91617,563.46866 944.91617,557.55959 L 944.91617,550.27565 C 944.91617,547.58442 945.47197,544.83466 946.58358,542.02636 C 947.75368,539.15963 949.27483,536.73165 951.14701,534.74242 C 955.18388,530.41306 960.1861,528.24836 966.15369,528.24831 C 968.43538,528.24836 970.74634,528.59939 973.0866,529.30141 C 975.48529,529.94501 977.88401,531.34915 980.28278,533.5138 C 982.68146,535.62005 984.23186,538.3113 984.93397,541.58757 M 1070.9564,528.24831 C 1077.1579,528.24836 1082.3356,530.79334 1086.4896,535.88328 C 1090.7019,540.9148 1092.8081,547.14563 1092.8082,554.5758 C 1092.8081,561.65499 1090.6727,567.71031 1086.4018,572.74178 C 1082.1309,577.71475 1076.9824,580.20124 1070.9564,580.20124 C 1064.8718,580.20124 1059.694,577.6855 1055.4231,572.65402 C 1051.2107,567.62255 1049.1045,561.47948 1049.1045,554.22477 C 1049.1045,546.97011 1051.2107,540.82704 1055.4231,535.79552 C 1059.694,530.76409 1064.8718,528.24836 1070.9564,528.24831 M 1070.9564,531.8464 C 1065.9249,531.84644 1061.6247,534.0404 1058.0559,538.42827 C 1054.487,542.81622 1052.7026,548.08172 1052.7026,554.22477 C 1052.7026,560.36787 1054.487,565.63337 1058.0559,570.02127 C 1061.6247,574.40919 1065.9249,576.60315 1070.9564,576.60315 C 1075.9293,576.60315 1080.2002,574.43844 1083.7691,570.10903 C 1087.3964,565.72113 1089.21,560.51414 1089.2101,554.48805 C 1089.21,548.16948 1087.4256,542.81622 1083.8568,538.42827 C 1080.3465,534.0404 1076.0463,531.84644 1070.9564,531.8464 M 1158.9094,578.7971 L 1158.9094,529.38916 L 1163.4728,529.38916 L 1190.2391,573.61936 L 1190.2391,529.38916 L 1193.8372,529.38916 L 1193.8372,578.7971 L 1189.2738,578.7971 L 1162.5075,534.5669 L 1162.5075,578.7971 L 1158.9094,578.7971 M 1263.1855,566.5987 C 1263.1855,565.01906 1263.7998,564.22924 1265.0285,564.22922 C 1266.14,564.22924 1266.7251,564.9313 1266.7836,566.33542 C 1266.9006,569.2022 1268.3925,571.63018 1271.2593,573.61936 C 1274.126,575.60855 1277.5486,576.60315 1281.527,576.60315 C 1285.6224,576.60315 1289.0157,575.55005 1291.707,573.44385 C 1294.4567,571.27915 1295.8316,568.58789 1295.8316,565.37008 C 1295.8316,562.03528 1294.5152,559.57805 1291.8825,557.99838 C 1290.1858,556.8868 1286.7925,555.8922 1281.7025,555.0146 C 1276.086,554.07853 1272.1076,552.73291 1269.7674,550.97771 C 1266.7251,548.87154 1265.204,545.82926 1265.204,541.85085 C 1265.204,537.98952 1266.7251,534.77172 1269.7674,532.19743 C 1272.8682,529.56473 1276.7295,528.24836 1281.3515,528.24831 C 1286.4415,528.24836 1290.4491,529.65249 1293.3744,532.4607 C 1296.2996,535.26902 1297.7623,538.04803 1297.7623,540.79775 C 1297.7623,542.37743 1297.1772,543.16726 1296.0071,543.16722 C 1294.837,543.16726 1294.2227,542.46519 1294.1642,541.06102 C 1293.9887,538.42831 1292.7015,536.23436 1290.3029,534.47915 C 1287.9041,532.72403 1285.0081,531.84644 1281.6148,531.8464 C 1277.9874,531.84644 1274.9744,532.81178 1272.5757,534.74242 C 1270.2354,536.67315 1269.0653,539.07187 1269.0653,541.9386 C 1269.0653,544.80541 1270.2062,547.02862 1272.4879,548.60824 C 1274.4771,549.89539 1277.7826,550.91924 1282.4046,551.67978 C 1288.1381,552.6744 1292.0872,553.84451 1294.252,555.19011 C 1297.8793,557.41335 1299.693,560.86517 1299.693,565.5456 C 1299.693,569.81651 1297.9963,573.32684 1294.603,576.0766 C 1291.2097,578.82636 1286.8802,580.20124 1281.6148,580.20124 C 1276.8173,580.20124 1272.5464,578.7971 1268.8021,575.98884 C 1265.0577,573.12207 1263.1855,569.99203 1263.1855,566.5987 M 1366.6717,529.38916 L 1406.6895,529.38916 L 1406.6895,532.98725 L 1388.5235,532.98725 L 1388.5235,578.7971 L 1384.9254,578.7971 L 1384.9254,532.98725 L 1366.6717,532.98725 L 1366.6717,529.38916 M 1470.158,578.7971 L 1488.5872,529.38916 L 1494.5548,529.38916 L 1513.1596,578.7971 L 1509.386,578.7971 L 1503.1551,562.29854 L 1479.8114,562.29854 L 1473.7561,578.7971 L 1470.158,578.7971 M 1501.8387,558.70045 L 1492.0098,532.98725 L 1490.6934,532.98725 L 1481.2155,558.70045 L 1501.8387,558.70045 M 1579.8751,578.7971 L 1579.8751,529.38916 L 1584.4385,529.38916 L 1611.2048,573.61936 L 1611.2048,529.38916 L 1614.8029,529.38916 L 1614.8029,578.7971 L 1610.2395,578.7971 L 1583.4732,534.5669 L 1583.4732,578.7971 L 1579.8751,578.7971 M 1682.3961,529.38916 L 1722.4139,529.38916 L 1722.4139,532.98725 L 1704.2479,532.98725 L 1704.2479,578.7971 L 1700.6498,578.7971 L 1700.6498,532.98725 L 1682.3961,532.98725 L 1682.3961,529.38916 M 144.23107,717.71854 L 136.1573,754.31377 L 131.76939,754.31377 L 123.78338,731.58436 L 115.97289,754.31377 L 111.49721,754.31377 L 103.24793,717.71854 L 106.75826,717.71854 L 113.86669,749.3993 L 121.4139,727.02093 L 125.88958,727.02093 L 133.70007,749.3993 L 140.54522,717.71854 L 144.23107,717.71854 M 196.85179,717.71854 L 188.77802,754.31377 L 184.39011,754.31377 L 176.4041,731.58436 L 168.59361,754.31377 L 164.11793,754.31377 L 155.86865,717.71854 L 159.37898,717.71854 L 166.48741,749.3993 L 174.03462,727.02093 L 178.5103,727.02093 L 186.32079,749.3993 L 193.16594,717.71854 L 196.85179,717.71854 M 249.47251,717.71854 L 241.39874,754.31377 L 237.01083,754.31377 L 229.02482,731.58436 L 221.21433,754.31377 L 216.73865,754.31377 L 208.48937,717.71854 L 211.9997,717.71854 L 219.10813,749.3993 L 226.65534,727.02093 L 231.13102,727.02093 L 238.94151,749.3993 L 245.78666,717.71854 L 249.47251,717.71854 M 281.20674,744.1338 L 282.08432,744.1338 C 283.78095,744.13381 285.21434,744.68961 286.38448,745.80121 C 287.55456,746.85432 288.13961,748.19994 288.13965,749.83809 C 288.13961,751.47625 287.55456,752.85113 286.38448,753.96273 C 285.21434,755.07434 283.78095,755.63014 282.08432,755.63014 L 281.20674,755.63014 C 279.51005,755.63014 278.07667,755.07434 276.90658,753.96273 C 275.73645,752.85113 275.15139,751.47625 275.15141,749.83809 C 275.15139,748.19994 275.73645,746.85432 276.90658,745.80121 C 278.07667,744.68961 279.51005,744.13381 281.20674,744.1338 M 352.78327,728.16178 C 352.78322,729.74146 352.19817,730.53128 351.0281,730.53126 C 349.97496,730.53128 349.36065,729.82922 349.18517,728.42506 C 349.00962,726.08486 347.54698,724.12493 344.79726,722.54525 C 342.10597,720.90713 338.91742,720.08805 335.2316,720.08802 C 330.37562,720.08805 326.4265,721.60919 323.38423,724.65145 C 320.40043,727.63526 318.90854,731.52588 318.90855,736.32331 C 318.90854,740.94526 320.42968,744.74812 323.47198,747.73189 C 326.51425,750.65717 330.43412,752.11981 335.2316,752.11981 C 341.60867,752.11981 347.07894,750.01361 351.64241,745.80121 C 352.22742,745.21616 352.75397,744.92363 353.22206,744.92363 C 353.69006,744.92363 354.07034,745.09915 354.36292,745.45018 C 354.7139,745.74271 354.88942,746.123 354.88947,746.59103 C 354.88942,747.76115 353.63155,749.19454 351.11586,750.89119 C 346.43538,754.109 341.08212,755.7179 335.05608,755.7179 C 329.32252,755.7179 324.58357,753.90423 320.83923,750.27688 C 317.15337,746.64955 315.31045,742.02761 315.31046,736.41107 C 315.31045,730.61904 317.21188,725.85084 321.01475,722.10646 C 324.81759,718.36214 329.6443,716.48996 335.49487,716.48993 C 337.01599,716.48996 338.59564,716.66548 340.23382,717.01648 C 341.87195,717.36755 343.59786,717.9526 345.41157,718.77164 C 347.2252,719.53225 348.80485,720.73161 350.15052,722.36973 C 351.4961,724.00792 352.37368,725.9386 352.78327,728.16178 M 386.88699,716.48993 C 392.50349,716.48996 397.24243,718.42064 401.10384,722.28198 C 404.96516,726.08486 406.89584,730.7653 406.89589,736.32331 C 406.89584,741.70583 404.9359,746.29851 401.01608,750.10137 C 397.09617,753.84572 392.38648,755.7179 386.88699,755.7179 C 381.32894,755.7179 376.58999,753.81647 372.67014,750.01361 C 368.80876,746.21076 366.87808,741.55957 366.87809,736.06003 C 366.87808,730.67755 368.80876,726.08486 372.67014,722.28198 C 376.58999,718.42064 381.32894,716.48996 386.88699,716.48993 M 386.88699,720.08802 C 382.32353,720.08805 378.43292,721.63845 375.21513,724.73921 C 372.05582,727.84003 370.47617,731.61363 370.47618,736.06003 C 370.47617,740.50647 372.05582,744.30933 375.21513,747.46862 C 378.43292,750.56941 382.32353,752.11981 386.88699,752.11981 C 391.39188,752.11981 395.25325,750.56941 398.47109,747.46862 C 401.68885,744.36783 403.29775,740.65273 403.29779,736.32331 C 403.29775,731.70139 401.7181,727.84003 398.55884,724.73921 C 395.39951,721.63845 391.50889,720.08805 386.88699,720.08802 M 427.83582,717.71854 L 427.83582,723.77387 C 430.35155,720.96563 432.57476,719.06421 434.50546,718.06958 C 436.43612,717.01651 438.77634,716.48996 441.52612,716.48993 C 445.44596,716.48996 448.72227,717.63082 451.35506,719.9125 C 453.98777,722.19425 455.30414,725.03177 455.30418,728.42506 L 455.30418,754.31377 L 451.70609,754.31377 L 451.70609,729.03937 C 451.70605,726.46515 450.59445,724.24194 448.37127,722.36973 C 446.55757,720.84862 444.15884,720.08805 441.17509,720.08802 C 437.95726,720.08805 435.17825,721.05339 432.83805,722.98404 C 431.78493,723.74464 430.11752,725.58757 427.83582,728.51282 L 427.83582,754.31377 L 424.23773,754.31377 L 424.23773,717.71854 L 427.83582,717.71854 M 476.68294,742.29088 C 477.20948,742.29089 477.61902,742.4664 477.91156,742.81743 C 478.26258,743.16847 478.4381,743.63651 478.43811,744.22156 L 478.43811,744.83587 C 478.4381,746.82506 479.75447,748.55098 482.38724,750.01361 C 485.01997,751.41774 488.20852,752.11981 491.95289,752.11981 C 495.81423,752.11981 499.03203,751.35924 501.60631,749.83809 C 504.18052,748.31695 505.46764,746.38627 505.46768,744.04604 C 505.46764,741.76434 504.18052,739.92141 501.60631,738.51727 C 499.55858,737.40568 496.39929,736.61585 492.12841,736.14779 C 486.62887,735.56276 482.82601,734.62667 480.71983,733.33953 C 478.02856,731.58438 476.68293,729.27341 476.68294,726.40662 C 476.68293,723.53988 478.08707,721.1704 480.89534,719.29819 C 483.7621,717.42605 487.36019,716.48996 491.68962,716.48993 C 496.25302,716.48996 500.05588,717.63082 503.0982,719.9125 C 504.38529,720.90713 505.37988,721.98948 506.08199,723.15956 C 506.84252,724.27119 507.25205,725.32429 507.3106,726.31886 C 507.31056,726.37739 507.31056,726.4359 507.3106,726.49438 C 507.31056,727.84003 506.72551,728.5421 505.55544,728.60058 C 504.5023,728.6006 503.88799,727.92779 503.71251,726.58213 C 503.47845,724.59297 502.30834,723.01333 500.20218,721.84318 C 498.09594,720.67311 495.37544,720.08805 492.04065,720.08802 C 488.76432,720.08805 486.04381,720.73161 483.87913,722.0187 C 481.71441,723.24735 480.63205,724.79774 480.63207,726.66989 C 480.63205,728.24957 481.56814,729.56594 483.44034,730.61902 C 484.43491,731.2626 485.4295,731.70139 486.42412,731.93539 C 487.41869,732.11093 489.81742,732.40346 493.6203,732.81298 C 498.65175,733.39805 502.4546,734.53891 505.02889,736.23555 C 507.95412,738.22476 509.41676,740.8575 509.4168,744.1338 C 509.41676,747.46862 507.7786,750.24763 504.50234,752.47084 C 501.28449,754.63555 497.18911,755.7179 492.21617,755.7179 C 486.59961,755.7179 482.06544,754.25526 478.61363,751.32998 C 476.27339,749.28229 475.01553,747.08834 474.84002,744.74811 C 474.84001,744.68961 474.84001,744.60185 474.84002,744.48483 C 474.84001,743.02221 475.45432,742.29089 476.68294,742.29088 M 534.74469,717.71854 L 554.05152,717.71854 C 555.63113,717.71858 556.42096,718.30363 556.421,719.47371 C 556.42096,720.70236 555.63113,721.31667 554.05152,721.31663 L 534.74469,721.31663 L 534.74469,744.74811 C 534.74467,746.97133 535.62225,748.75574 537.37744,750.10137 C 539.13258,751.447 541.53131,752.11981 544.57362,752.11981 C 547.03083,752.11981 549.63432,751.79803 552.38411,751.15447 C 555.19234,750.4524 557.4448,749.60407 559.1415,748.60947 C 559.72652,748.25845 560.19456,748.08293 560.54564,748.08292 C 560.95513,748.08293 561.33542,748.25845 561.6865,748.60947 C 562.03749,748.96051 562.213,749.37005 562.21305,749.83809 C 562.213,751.12522 560.22382,752.44159 556.24548,753.78722 C 552.32557,755.07434 548.49346,755.7179 544.74914,755.7179 C 540.59522,755.7179 537.28966,754.75256 534.83245,752.82187 C 532.3752,750.83269 531.14658,748.19994 531.1466,744.92363 L 531.1466,721.31663 L 524.65248,721.31663 C 523.01432,721.31667 522.19524,720.70236 522.19525,719.47371 C 522.19524,718.30363 523.01432,717.71858 524.65248,717.71854 L 531.1466,717.71854 L 531.1466,707.2753 C 531.14658,705.6957 531.76089,704.90588 532.98952,704.90583 C 534.15962,704.90588 534.74467,705.6957 534.74469,707.2753 L 534.74469,717.71854 M 607.81311,754.31377 L 607.81311,748.43396 C 602.60608,753.28992 597.01881,755.7179 591.05127,755.7179 C 586.95586,755.7179 583.6503,754.69405 581.13457,752.64636 C 578.61883,750.54016 577.36096,747.81966 577.36097,744.48483 C 577.36096,740.68199 579.05762,737.61045 582.45095,735.27021 C 585.90276,732.8715 590.37843,731.67214 595.87797,731.67212 C 599.32977,731.67214 603.30815,732.28645 607.81311,733.51504 L 607.81311,727.2842 C 607.81307,725.11952 606.81848,723.39361 604.82932,722.10646 C 602.8401,720.76086 600.23661,720.08805 597.01883,720.08802 C 594.38606,720.08805 590.23217,720.96563 584.55715,722.72077 C 584.08909,722.83781 583.79656,722.89632 583.67957,722.89628 C 583.21151,722.89632 582.80197,722.7208 582.45095,722.36973 C 582.15841,722.01873 582.01215,721.60919 582.01216,721.14112 C 582.01215,720.26357 582.50944,719.64926 583.50405,719.29819 C 588.94505,717.42605 593.53773,716.48996 597.28211,716.48993 C 601.37747,716.48996 604.74153,717.51381 607.37432,719.56147 C 610.06553,721.60919 611.41116,724.18344 611.4112,727.2842 L 611.4112,754.31377 L 607.81311,754.31377 M 607.81311,744.48483 L 607.81311,736.58658 C 604.30274,735.70902 600.55839,735.27023 596.58004,735.27021 C 591.95808,735.27023 588.18448,736.14781 585.25922,737.90296 C 582.39243,739.59963 580.95905,741.82284 580.95906,744.57259 C 580.95905,746.85432 581.86588,748.69724 583.67957,750.10137 C 585.49322,751.447 587.9212,752.11981 590.96351,752.11981 C 594.06428,752.11981 596.9018,751.53476 599.47607,750.36464 C 602.10878,749.19454 604.8878,747.2346 607.81311,744.48483 M 638.31873,717.71854 L 638.31873,723.77387 C 640.83446,720.96563 643.05767,719.06421 644.98837,718.06958 C 646.91903,717.01651 649.25925,716.48996 652.00903,716.48993 C 655.92887,716.48996 659.20518,717.63082 661.83797,719.9125 C 664.47068,722.19425 665.78705,725.03177 665.78709,728.42506 L 665.78709,754.31377 L 662.189,754.31377 L 662.189,729.03937 C 662.18896,726.46515 661.07736,724.24194 658.85418,722.36973 C 657.04048,720.84862 654.64175,720.08805 651.658,720.08802 C 648.44017,720.08805 645.66116,721.05339 643.32096,722.98404 C 642.26784,723.74464 640.60043,725.58757 638.31873,728.51282 L 638.31873,754.31377 L 634.72064,754.31377 L 634.72064,717.71854 L 638.31873,717.71854 M 692.60687,717.71854 L 711.9137,717.71854 C 713.49332,717.71858 714.28314,718.30363 714.28318,719.47371 C 714.28314,720.70236 713.49332,721.31667 711.9137,721.31663 L 692.60687,721.31663 L 692.60687,744.74811 C 692.60685,746.97133 693.48444,748.75574 695.23962,750.10137 C 696.99477,751.447 699.39349,752.11981 702.4358,752.11981 C 704.89301,752.11981 707.4965,751.79803 710.2463,751.15447 C 713.05453,750.4524 715.30699,749.60407 717.00369,748.60947 C 717.5887,748.25845 718.05675,748.08293 718.40782,748.08292 C 718.81732,748.08293 719.1976,748.25845 719.54868,748.60947 C 719.89967,748.96051 720.07518,749.37005 720.07523,749.83809 C 720.07518,751.12522 718.086,752.44159 714.10766,753.78722 C 710.18776,755.07434 706.35565,755.7179 702.61132,755.7179 C 698.4574,755.7179 695.15184,754.75256 692.69463,752.82187 C 690.23738,750.83269 689.00877,748.19994 689.00878,744.92363 L 689.00878,721.31663 L 682.51466,721.31663 C 680.8765,721.31667 680.05743,720.70236 680.05743,719.47371 C 680.05743,718.30363 680.8765,717.71858 682.51466,717.71854 L 689.00878,717.71854 L 689.00878,707.2753 C 689.00877,705.6957 689.62307,704.90588 690.8517,704.90583 C 692.0218,704.90588 692.60685,705.6957 692.60687,707.2753 L 692.60687,717.71854 M 774.53882,717.71854 L 758.39129,754.31377 L 752.2482,754.31377 L 735.92515,717.71854 L 739.87428,717.71854 L 754.61768,750.71567 L 756.28509,750.71567 L 770.76521,717.71854 L 774.53882,717.71854 M 824.43904,754.31377 L 791.61742,754.31377 L 791.61742,751.15447 L 818.03268,721.31663 L 792.40725,721.31663 L 792.40725,717.71854 L 823.12266,717.71854 L 823.12266,720.87784 L 796.53189,750.71567 L 824.43904,750.71567 L 824.43904,754.31377 M 880.92113,717.71854 L 872.84737,754.31377 L 868.45945,754.31377 L 860.47344,731.58436 L 852.66295,754.31377 L 848.18728,754.31377 L 839.93799,717.71854 L 843.44833,717.71854 L 850.55675,749.3993 L 858.10397,727.02093 L 862.57964,727.02093 L 870.39013,749.3993 L 877.23528,717.71854 L 880.92113,717.71854 M 912.65538,744.1338 L 913.53296,744.1338 C 915.22959,744.13381 916.66298,744.68961 917.83312,745.80121 C 919.0032,746.85432 919.58825,748.19994 919.58829,749.83809 C 919.58825,751.47625 919.0032,752.85113 917.83312,753.96273 C 916.66298,755.07434 915.22959,755.63014 913.53296,755.63014 L 912.65538,755.63014 C 910.95869,755.63014 909.52531,755.07434 908.35522,753.96273 C 907.18509,752.85113 906.60003,751.47625 906.60005,749.83809 C 906.60003,748.19994 907.18509,746.85432 908.35522,745.80121 C 909.52531,744.68961 910.95869,744.13381 912.65538,744.1338 M 965.7149,716.48993 C 971.3314,716.48996 976.07034,718.42064 979.93175,722.28198 C 983.79307,726.08486 985.72375,730.7653 985.7238,736.32331 C 985.72375,741.70583 983.76382,746.29851 979.84399,750.10137 C 975.92408,753.84572 971.21439,755.7179 965.7149,755.7179 C 960.15685,755.7179 955.4179,753.81647 951.49805,750.01361 C 947.63667,746.21076 945.70599,741.55957 945.706,736.06003 C 945.70599,730.67755 947.63667,726.08486 951.49805,722.28198 C 955.4179,718.42064 960.15685,716.48996 965.7149,716.48993 M 965.7149,720.08802 C 961.15144,720.08805 957.26083,721.63845 954.04304,724.73921 C 950.88373,727.84003 949.30408,731.61363 949.30409,736.06003 C 949.30408,740.50647 950.88373,744.30933 954.04304,747.46862 C 957.26083,750.56941 961.15144,752.11981 965.7149,752.11981 C 970.21979,752.11981 974.08116,750.56941 977.299,747.46862 C 980.51676,744.36783 982.12566,740.65273 982.12571,736.32331 C 982.12566,731.70139 980.54601,727.84003 977.38676,724.73921 C 974.22742,721.63845 970.3368,720.08805 965.7149,720.08802 M 1013.7722,717.71854 L 1013.7722,726.66989 C 1017.809,722.98407 1021.0854,720.43908 1023.6011,719.03492 C 1026.1168,717.57232 1028.4863,716.841 1030.7095,716.84096 C 1033.0497,716.841 1035.3022,717.74783 1037.4669,719.56147 C 1038.8125,720.67311 1039.4853,721.57994 1039.4854,722.28198 C 1039.4853,722.80856 1039.3098,723.24735 1038.9588,723.59835 C 1038.6078,723.94941 1038.169,724.12493 1037.6425,724.1249 C 1037.1744,724.12493 1036.7063,723.89091 1036.2383,723.42283 C 1034.1906,721.43368 1032.2599,720.43908 1030.4463,720.43905 C 1028.457,720.43908 1026.3801,721.14115 1024.2154,722.54525 C 1022.1092,723.94941 1018.6281,726.87469 1013.7722,731.32108 L 1013.7722,754.31377 L 1010.1741,754.31377 L 1010.1741,717.71854 L 1013.7722,717.71854 M 1083.2425,717.71854 L 1086.8406,717.71854 L 1086.8406,756.771 C 1086.8406,760.16432 1085.5827,763.2066 1083.067,765.89787 C 1080.0832,769.05715 1076.5143,770.6368 1072.3605,770.63682 L 1062.356,770.63682 C 1060.7764,770.6368 1059.9865,770.02249 1059.9866,768.79389 C 1059.9865,767.62377 1060.7764,767.03871 1062.356,767.03872 L 1072.536,767.03872 C 1075.5198,767.03871 1078.0355,765.98561 1080.0832,763.87942 C 1082.1894,761.77322 1083.2425,759.22823 1083.2425,756.24445 L 1083.2425,744.92363 C 1079.3811,750.59867 1074.3789,753.43618 1068.2358,753.43618 C 1063.2629,753.43618 1058.992,751.62251 1055.4231,747.99517 C 1051.9128,744.36783 1050.1576,740.00917 1050.1576,734.91918 C 1050.1576,729.82922 1051.9128,725.49981 1055.4231,721.93094 C 1058.992,718.30363 1063.2629,716.48996 1068.2358,716.48993 C 1074.4374,716.48996 1079.4396,719.32748 1083.2425,725.00248 L 1083.2425,717.71854 M 1068.4991,720.08802 C 1064.4037,720.08805 1060.9226,721.52144 1058.0559,724.38818 C 1055.1891,727.25497 1053.7557,730.7653 1053.7557,734.91918 C 1053.7557,739.07308 1055.1891,742.61267 1058.0559,745.53793 C 1060.9226,748.40471 1064.4037,749.8381 1068.4991,749.83809 C 1072.5945,749.8381 1076.0756,748.40471 1078.9424,745.53793 C 1081.8091,742.67117 1083.2425,739.1901 1083.2425,735.09469 C 1083.2425,730.82381 1081.8091,727.25497 1078.9424,724.38818 C 1076.1341,721.52144 1072.653,720.08805 1068.4991,720.08802"
   id="text19" />














</svg>
